<?xml version="1.0" encoding="UTF-8" standalone="no"?>
<!-- Created with Inkscape (http://www.inkscape.org/) -->

<svg
   width="2400"
   height="650"
   viewBox="0 0 634.99999 171.97914"
   version="1.1"
   id="svg5"
   inkscape:version="1.1 (c68e22c387, 2021-05-23)"
   sodipodi:docname="banner_v3_white.svg"
   xmlns:inkscape="http://www.inkscape.org/namespaces/inkscape"
   xmlns:sodipodi="http://sodipodi.sourceforge.net/DTD/sodipodi-0.dtd"
   xmlns:xlink="http://www.w3.org/1999/xlink"
   xmlns="http://www.w3.org/2000/svg"
   xmlns:svg="http://www.w3.org/2000/svg">
  <sodipodi:namedview
     id="namedview7"
     pagecolor="#ffffff"
     bordercolor="#999999"
     borderopacity="1"
     inkscape:pageshadow="0"
     inkscape:pageopacity="0"
     inkscape:pagecheckerboard="0"
     inkscape:document-units="mm"
     showgrid="false"
     units="in"
     inkscape:zoom="0.5"
     inkscape:cx="1192"
     inkscape:cy="373"
     inkscape:window-width="1536"
     inkscape:window-height="801"
     inkscape:window-x="2552"
     inkscape:window-y="349"
     inkscape:window-maximized="1"
     inkscape:current-layer="layer1"
     inkscape:snap-global="false" />
  <defs
     id="defs2">
    <clipPath
       clipPathUnits="userSpaceOnUse"
       id="clipPath17460">
      <rect
         style="opacity:0.923077;fill:#cc0000;fill-opacity:0.389098;stroke:none;stroke-width:1.90997;stroke-linecap:round;stroke-miterlimit:0;stroke-opacity:1;paint-order:fill markers stroke"
         id="rect17462"
         width="56.278431"
         height="7.9383135"
         x="249.47459"
         y="55.585232" />
    </clipPath>
    <clipPath
       clipPathUnits="userSpaceOnUse"
       id="clipPath17460-6">
      <rect
         style="opacity:0.923077;fill:#cc0000;fill-opacity:0.389098;stroke:none;stroke-width:1.90997;stroke-linecap:round;stroke-miterlimit:0;stroke-opacity:1;paint-order:fill markers stroke"
         id="rect17462-4"
         width="56.278431"
         height="7.9383135"
         x="249.47459"
         y="55.585232" />
    </clipPath>
    <clipPath
       clipPathUnits="userSpaceOnUse"
       id="clipPath18276-7">
      <path
         id="path18278-6"
         style="fill:#ff0000;fill-opacity:1;fill-rule:nonzero;stroke:none;stroke-width:0.264583"
         d="M 209.65387,1.0622637 V 136.52893 H 345.12054 V 1.0622637 Z m 66.22696,25.5255733 0.003,5.29e-4 v 5.29e-4 h 0.003 v 5.29e-4 l -0.004,5.29e-4 c 0.54252,0.01005 1.10786,0.168762 1.65986,0.478523 0.43889,-0.04493 0.87688,-0.08125 1.32188,-0.100769 0.11634,-0.0051 0.23286,0.0061 0.34933,0.0041 0.0972,-0.0016 0.19434,-0.0065 0.29144,-0.0098 0.10906,-0.0046 0.21815,-0.008 0.32713,-0.01394 0.1075,-0.006 0.21574,-0.03124 0.32298,-0.03411 h 0.004 c 0.0357,-0.0011 0.0715,5.29e-4 0.10697,0.0062 0.44032,0.07035 0.87972,0.162494 1.30226,0.304893 0.23307,0.07854 0.48371,0.364498 0.68006,0.606163 0.01,0.0031 0.0201,0.0061 0.03,0.0093 0.0745,0.09932 0.3093,0.387628 0.22376,0.297656 -0.062,-0.06527 -0.15086,-0.180361 -0.25373,-0.306959 -0.11735,-0.03669 -0.23728,-0.06846 -0.35761,-0.0987 0.71866,0.586872 0.97398,0.850161 1.04645,1.274341 2.83292,1.594602 2.62096,4.974937 -0.57981,6.274036 -0.0198,0.489977 -0.0744,0.977567 -0.23357,1.444358 -0.0477,0.139991 -0.11457,0.272444 -0.17209,0.40876 0.1143,-0.06475 0.006,-0.01638 -0.0175,0.197921 -0.003,0.01987 0.0309,-0.02773 0.0382,-0.04651 0.0111,-0.03045 0.0164,-0.128545 0.0156,-0.09612 -0.0143,0.55526 -0.007,0.417582 -0.0982,0.907439 0.014,-0.0093 0.0393,-0.04443 0.0424,-0.0279 0.0151,0.0891 -0.003,0.180961 0,0.271301 0,0.221377 0.003,0.442677 0.004,0.664043 0.004,0.46555 0.008,0.93123 0.0103,1.396812 0.0484,0.201393 0.0834,0.349753 0.15555,0.620636 0.004,0.01561 0.014,0.02991 0.0161,0.04599 0.0491,0.516708 0.11822,1.032619 0.13645,1.551327 0.003,0.08241 -0.008,0.164388 -0.0164,0.246496 -1.5e-4,0.04897 0.004,0.0824 0.003,0.140041 -0.006,0.132006 -0.0266,0.262941 -0.0465,0.393777 0.023,-0.01746 -0.003,0.13195 0,0.1881 0.003,0.06141 0.004,0.166365 0.006,0.260451 0.005,0.01855 0.0127,0.04227 0,0.04651 0,0.02127 0,0.04525 0.003,0.06305 7e-5,0.03053 0.031,0.09109 0,0.09147 -0.003,3.1e-5 -0.006,-3.7e-5 -0.008,0 0.004,0.147941 0.008,0.295717 0.008,0.443902 0,0.0546 0.003,0.109574 -0.003,0.163814 -0.0341,0.287425 -0.0716,0.574678 -0.11782,0.860412 0.0108,-0.07276 0.0222,-0.260427 0.0164,-0.195337 h -0.003 c -0.006,0.07011 -0.0116,0.140205 -0.0175,0.210323 0,-0.0024 0.003,-0.0045 0.003,-0.0067 0,0.0048 -1e-4,0.0097 -0.003,0.01447 -0.003,0.01146 -0.006,0.0357 -0.009,0.05116 -0.0135,0.159372 -0.0265,0.318637 -0.0398,0.478007 -0.007,0.03913 -0.0114,0.07825 -0.018,0.117305 -0.003,0.01707 -2.7e-4,0.04277 -0.004,0.05633 -0.0132,0.07096 -0.052,0.283385 -0.0424,0.211873 0.0122,-0.08995 0.0296,-0.178895 0.046,-0.2682 0.008,-0.08551 0.009,-0.19722 0.003,-0.308509 -0.004,0.0079 -0.007,0.0068 -0.0103,-0.0155 -0.003,-0.02826 -2.1e-4,-0.05596 0.004,-0.08372 -7e-5,-5.29e-4 6e-5,-7.93e-4 0,-0.0016 -0.0111,-0.123518 -0.0295,-0.204838 -0.0429,-0.117306 -0.085,0.559861 -0.12391,1.125236 -0.17106,1.68982 -0.0675,-0.670216 -0.24902,-2.22617 -0.32297,-2.153872 -0.0106,0.01138 -0.0206,0.05607 -0.0265,0.14211 -0.048,0.763913 0.20756,1.515689 0.32813,2.272728 0.007,-0.07833 0.013,-0.156731 0.0196,-0.235127 0.003,0.02215 0.006,0.05121 0.008,0.0677 0.007,0.06893 -0.006,0.137023 -0.0238,0.20464 -0.003,-0.01238 -0.004,-0.02482 -0.006,-0.03721 -0.003,0.03287 -0.005,0.06585 -0.008,0.0987 0.006,-0.01913 0.0106,-0.03821 0.0156,-0.05736 0.003,0.01376 0.005,0.0276 0.007,0.04134 -0.0154,0.109646 -0.0351,0.218479 -0.046,0.328662 0,0.007 0.0103,-0.01947 0.0156,-0.01447 0.013,0.0132 0.0156,0.175506 0.0161,0.216524 0.004,0.185476 0.006,0.371062 0.009,0.556556 0.0193,0.487159 -0.0177,0.975106 -0.0161,1.461927 1.6e-4,0.04486 0.007,-0.08962 0.0103,-0.134361 1.6e-4,0.09095 -1.6e-4,0.181898 0,0.272851 0.0822,0.112366 0.16965,0.223944 0.23823,0.312645 0.0672,0.07727 0.19029,0.227815 0.28578,0.340546 0.46431,0.01765 0.92807,0.04627 1.39059,0.101287 0.79322,0.05762 1.58224,0.07963 2.37247,0.188101 0.22352,0.03068 0.51263,-0.03219 0.66302,0.135911 0.033,0.0368 0.0771,0.09082 0.11369,0.133323 0.0854,0.0065 0.14954,0.01103 0.22426,0.01707 v 5.29e-4 c -0.0748,-0.0056 -0.14933,-0.01244 -0.22426,-0.01757 0.21254,0.246626 0.48617,0.58928 0.78237,0.969452 0.0396,2.9e-5 0.0792,-3.7e-5 0.11885,0 -0.45669,-0.640731 0.0715,0.100232 -0.67643,-0.951881 1.3276,0.09843 2.6461,0.258683 3.96616,0.435631 0.3919,0.05254 0.78308,0.1099 1.17461,0.164849 0.51517,0.0792 1.03122,0.153802 1.54565,0.237712 0.18706,0.03052 0.37134,0.07533 0.55705,0.11317 h 0.4036 0.67696 0.94723 0.34674 0.25014 0.25371 0.25529 0.25477 0.34055 0.33485 0.4744 0.21135 0.25424 c 7.57764,0 7.57764,7.65483 0,7.65483 h -0.25424 -0.21135 -0.4744 -0.33485 -0.34055 -0.25477 -0.25529 -0.0992 c -0.38709,0.05073 -0.79685,0.08173 -1.23455,0.08527 -0.66228,0.0053 -1.32847,-0.0055 -1.98797,-0.07752 -0.0145,0.0036 -0.0222,-2.2e-4 -0.0305,-0.0031 -0.014,-0.0016 -0.0279,-0.0029 -0.0418,-0.0047 h -0.0212 -0.10438 c -0.57854,8e-6 -1.15676,0 -1.7353,0 -0.74197,2.9e-5 -1.48428,5.3e-5 -2.2262,0 -0.65016,-9e-5 -1.30064,2.64e-4 -1.9508,0 -1.23412,-0.0011 -2.46798,-7.94e-4 -3.7021,0.0026 -0.60026,5.29e-4 -1.20007,-0.0019 -1.80041,-0.0052 0.013,0.118909 0.0185,0.127408 0.0419,0.390157 0.0148,0.167773 0.004,0.336826 0.0161,0.504878 0.003,0.03094 0.008,-0.06118 0.0119,-0.09198 0.0915,0.484796 0.1379,0.947307 0.16227,1.45056 0.008,0.167582 -0.0161,0.779269 -0.0222,0.96738 -0.0238,0.738788 -0.004,1.478828 -0.003,2.217955 0.0122,0.454334 -0.003,0.907854 -0.0294,1.360641 0.0302,0.09797 0.0594,0.196381 0.0889,0.294555 0.52398,1.746557 0.21977,3.050725 -0.44854,3.780647 0.005,0.15848 0.013,0.316685 0.0238,0.47594 0.21897,0.102569 0.41116,0.194834 0.4563,0.219107 0.43283,0.232312 0.86381,0.469487 1.27743,0.734322 0.56928,0.364474 1.09673,0.982644 1.54358,1.43609 0.0143,0.02408 0.0708,0.06605 0.0434,0.07235 -0.0382,0.0088 -0.12864,-0.08749 -0.10181,-0.05891 0.11475,0.122179 0.24945,0.224086 0.36846,0.342098 0.74795,0.741593 1.42549,1.54708 2.02313,2.415874 0.19693,0.320667 0.59802,0.978471 0.79375,1.275889 0.13589,0.206571 0.29557,0.397566 0.42167,0.610299 0.0952,0.160774 0.18666,0.323659 0.27699,0.48731 0.16494,0.165512 0.33055,0.330417 0.49197,0.499194 0.0222,0.02323 0.0666,0.06792 0.0987,0.103352 v 5.29e-4 c 0.0733,0.05279 0.1443,0.10826 0.20981,0.170532 0.7384,0.701527 1.19515,1.487347 1.4242,2.474267 0.15322,0.658934 0.17513,0.460687 0.14314,0.716751 -0.0898,-0.126844 0.0463,0.05594 0.0175,0.117824 -0.007,0.01632 -0.0206,-0.0074 -0.0341,-0.03669 0.28313,0.786228 0.13219,0.187301 0.36277,1.129128 0.004,0.0163 -0.0127,-0.0311 -0.0196,-0.04651 0.0432,0.165404 0.0413,0.152577 0.0677,0.254248 0.35314,0.06794 0.71345,0.124881 0.96893,0.359151 2.15046,1.971797 1.89863,1.965558 1.98594,4.008025 0.50906,-0.373457 1.14244,-0.577138 1.84589,-0.569473 1.44386,0.01572 3.17608,0.914855 4.70098,3.026687 0.78394,1.085615 1.12078,2.411032 1.16428,3.732589 0.01,0.273081 0.007,0.54638 0.0103,0.819589 -0.0434,0.662424 -0.004,1.327525 -0.0243,1.990058 -0.0108,0.353928 -0.0294,0.707647 -0.0439,1.061434 -0.069,0.891508 -0.0818,1.786897 -0.14935,2.678387 -0.0177,0.23528 -0.0265,0.4727 -0.0713,0.70435 -0.0599,0.30928 0.0557,0.8839 -0.15555,1.01802 0.0705,0.50363 0.0971,-0.14412 0.0801,0.2589 0,0.0112 0.003,-0.0159 0.003,-0.0119 0.003,0.23548 0.003,0.47093 0.003,0.70642 -1.3e-4,0.14451 0,0.28907 0,0.43356 0.005,7.3142 -7.12472,7.57129 -7.62537,0.76636 -0.22566,-4e-5 -0.45132,5.3e-4 -0.67696,0 -0.71641,-0.002 -1.43277,0.007 -2.14921,10e-4 -0.93864,-0.006 -1.87725,-10e-4 -2.81586,0.016 -0.5471,-0.0103 -0.41761,1.7e-4 -1.08728,-0.0584 -0.0375,-0.003 -0.14943,-0.0136 -0.11213,-0.0186 0.15793,-0.0193 0.63548,-0.0219 0.47647,-0.0269 -1.32107,-0.0405 -0.89184,5.3e-4 -0.78756,0.009 -0.0456,0.0549 -0.0713,0.0883 -0.12661,0.15503 -0.22407,0.2521 -0.44614,0.50579 -0.6723,0.75603 -0.10001,0.11063 -0.14523,0.14868 -0.22273,0.23202 2.86107,0.20411 5.69071,0.44662 2.71301,2.73886 -0.33676,0.25926 -0.674,0.51847 -1.01079,0.77773 -0.26296,0.13773 -0.5212,0.28303 -0.78806,0.41289 -0.64569,0.3141 -2.03266,0.91842 -2.60863,1.15807 -0.53798,0.22384 -0.36428,0.0993 -0.89813,0.32401 -0.15597,0.0657 -0.30509,0.14579 -0.45786,0.21859 -0.15571,0.0638 -0.31176,0.12692 -0.46715,0.19172 0.0587,0.0494 0.12163,0.0934 0.17931,0.14418 2.82707,2.48539 3.09478,5.14612 1.93114,6.60786 4.4109,0.69222 5.32106,4.40774 2.73627,6.35104 4.34671,2.96489 1.72191,8.3101 -4.60179,6.20221 -0.69901,-0.23302 -0.40691,-0.15061 -1.24384,-0.35296 -0.21076,-0.051 -0.42066,-0.10669 -0.63357,-0.14779 -0.88148,-0.1701 -0.23889,-0.0326 -0.71622,-0.0873 -0.31361,-0.0359 -0.62625,-0.0781 -0.93949,-0.11731 -0.51604,-0.0762 -1.03378,-0.13924 -1.55183,-0.20102 -0.0204,0.43878 0.35719,0.74165 1.38906,0.8232 0.14825,-0.0193 0.18426,-0.0236 0.0295,0.003 0.13134,0.01 0.27353,0.016 0.42582,0.0186 -0.15245,-1.6e-4 -0.3057,-0.002 -0.47337,-0.0109 0.0402,-0.007 0.0214,-0.004 0.0481,-0.008 -0.01,-8e-4 -0.0201,-0.002 -0.03,-0.003 -0.2246,0.0292 -0.61986,0.0758 -0.77774,0.046 -0.33729,-0.0636 -0.66387,-0.1695 -0.98856,-0.28318 -0.022,0.003 -0.0477,0.006 -0.0615,0.007 -0.008,5.3e-4 -0.0106,7.9e-4 -0.0156,0.001 0.0183,-0.0108 0.0413,-0.0134 0.0677,-0.0109 -0.32038,-0.11232 -0.63907,-0.23213 -0.9643,-0.3266 -0.0529,-0.0154 0.0937,0.0578 0.14211,0.0842 0.2159,0.11772 0.43101,0.1738 0.67284,0.25683 0.03,-0.001 0.038,-0.001 0.0765,-0.003 -0.006,0.004 -0.0114,0.008 -0.0156,0.0139 -0.005,0.007 0.52424,0.0703 -0.0185,0.003 -0.0148,-0.005 -0.0277,-0.009 -0.0424,-0.0139 -0.24379,0.0111 -0.27649,0.0104 -0.66093,0.0191 -0.23225,-0.005 -0.46453,-0.005 -0.69662,-0.015 -0.8808,-0.0362 -1.75437,-0.16867 -2.63342,-0.22737 -0.0832,-0.01 -0.16643,-0.0192 -0.24959,-0.0289 -0.103,0.10581 -0.4404,-0.0545 -0.63304,-0.0646 -0.16827,-0.009 -0.33541,-0.0308 -0.50281,-0.0506 -0.34462,1.28741 -0.55084,1.70359 -0.37362,-0.0543 -0.96409,-0.15719 -1.01513,-0.15793 -2.21382,-0.41858 -0.60936,-0.1325 -1.21846,-0.26628 -1.8247,-0.41238 -0.20138,-0.0485 -0.40844,-0.0867 -0.59738,-0.17156 -0.0352,-0.0159 0.004,-0.0987 -0.032,-0.11111 -0.094,-0.0318 -0.19846,0 -0.29765,0 h -1.37719 v -0.002 c -7.57769,0 -7.57769,-7.65483 0,-7.65483 h 1.37719 c 0.0744,0 0.14948,-0.008 0.22375,-0.006 0.0249,7.9e-4 0.0494,0.002 0.0739,0.006 0.22365,0.0338 0.27062,0.0416 0.43614,0.0667 -0.19156,-0.46554 -0.25749,-0.66388 -0.42942,-1.20148 -0.0164,-0.0807 -0.036,-0.17048 -0.0553,-0.25838 -0.0801,-0.0879 -0.14986,-0.17362 -0.21859,-0.2589 -0.99603,1.38079 -1.90371,1.86644 -2.47013,-0.76429 -0.0726,-0.337 -0.21845,-0.66659 -0.21808,-1.01131 0.002,-2.08596 0.22855,-1.82359 1.449,-3.56516 0.52949,-0.28991 1.04093,-0.61582 1.58853,-0.86971 0.19543,-0.0906 0.41556,-0.11571 0.62686,-0.1571 0.21484,-0.0421 0.43058,-0.0767 0.64698,-0.10697 0.0143,-0.0902 0.0372,-0.17758 0.0832,-0.25735 0.0103,-0.0176 0.0209,-0.0343 0.0315,-0.0517 -0.0251,0.1174 -0.0418,0.20983 -0.0574,0.30023 0.007,-7.9e-4 0.0132,-10e-4 0.0196,-0.002 0,-0.008 0.003,-0.022 0.003,-0.0284 0.0167,-0.10693 0.0384,-0.21272 0.062,-0.31833 -0.007,0.0116 -0.0148,0.0231 -0.0217,0.0346 0.0135,-0.062 0.0267,-0.11588 0.0408,-0.17673 -0.003,0.0257 -0.005,0.0528 -0.007,0.0858 0.0241,-0.10549 0.0489,-0.21082 0.0734,-0.31626 0.004,-0.043 0.008,-0.0799 0.014,-0.12816 -0.0201,0.0823 -0.0455,0.19561 -0.0703,0.30489 0.0124,-0.10823 0.0401,-0.2482 0.11006,-0.66921 0,-0.003 1.9e-4,-0.0112 0.003,-0.0139 0,-0.0164 0.01,-0.0648 0.009,-0.0486 -0.007,0.042 -0.005,0.0256 -0.0109,0.0625 -0.008,0.0855 -0.0225,0.23018 -0.0367,0.3638 0.0405,-0.16401 0.0661,-0.25783 0.0496,-0.16898 -0.0182,0.0995 -0.0408,0.19849 -0.0635,0.29714 -0.0159,0.15816 -0.023,0.26354 -0.003,0.15762 0.0384,-0.19094 0.0652,-0.35345 0.0853,-0.49765 0.003,-0.0207 0.005,-0.0525 0.006,-0.0677 0.009,-0.15287 0.0236,-0.3055 0.0393,-0.45786 0.003,-0.021 0.004,-0.0263 0.006,-0.0434 0.008,-0.30068 -0.0227,-0.39668 0.0491,-0.46818 -0.003,-0.44294 -0.013,-0.8862 0.008,-1.32861 -0.13976,-0.44858 -0.21881,-0.79369 -0.0956,-0.64905 -0.0411,-0.6326 -0.0502,-0.58805 -0.0284,-1.33377 -0.11965,-0.41409 -0.22876,-0.79775 -0.10338,-0.38241 -0.24119,-0.95209 -0.0832,-0.32814 -0.2904,-1.31103 0,0.002 -0.006,-0.0142 -0.0103,-0.0186 -0.0338,-0.0281 -0.0418,-0.1245 -0.0408,-0.17622 0.006,0.0159 0.0103,0.0281 0.0175,0.0491 0.004,0.0169 0.007,0.0328 0.0114,0.0496 -0.0177,-0.0835 -0.003,-0.0192 -0.0259,-0.12403 -0.003,-0.0149 -0.005,8e-5 -0.006,0.009 -0.055,-0.14677 -0.10081,-0.26666 -0.12298,-0.33228 -0.0544,-0.0936 -0.10676,-0.18867 -0.15142,-0.28732 -0.0238,-0.0529 -0.0357,-0.086 -0.0563,-0.13333 -0.14102,0.0484 -0.27935,0.10371 -0.42064,0.1509 -0.90752,0.30313 -1.86266,0.59571 -2.82463,0.632 -0.91353,0.0144 -1.8286,0.0375 -2.74042,-0.0377 0.0733,-0.0205 0.29574,-0.0621 0.21963,-0.0615 -0.27967,0.002 -0.55647,0.0687 -0.83613,0.0667 -0.72553,-0.006 -1.43717,-0.16515 -2.13165,-0.35915 -0.66777,-0.16646 -1.34283,-0.2934 -2.01176,-0.45682 -0.60573,-0.14795 -0.56734,-0.1716 -1.2082,-0.31523 -0.15465,-0.0347 -0.31227,-0.0574 -0.46819,-0.0858 -4.49818,-0.81784 -5.77917,-3.88209 -4.45399,-5.888004 -0.001,-0.01236 -0.006,-0.04269 -0.006,-0.04651 0.0161,-0.499697 -0.0819,-1.021408 0.0672,-1.498616 0.0466,-0.149053 0.10934,-0.291012 0.18087,-0.429429 0.0602,-0.376764 0.12371,-0.753327 0.15606,-1.133266 -3.6639,-2.819802 -2.27673,-6.830018 1.55236,-6.806819 0.98984,0.006 2.14243,0.281329 3.41323,0.916739 0.14176,0.07088 0.30959,0.104592 0.4253,0.212908 0.1555,0.145579 0.28144,0.260368 0.42323,0.389641 0.046,-0.07313 0.0893,-0.147781 0.13384,-0.221692 0.1313,-0.187452 0.26271,-0.374922 0.39429,-0.562239 -0.0149,-0.102521 -0.0405,-0.437082 -0.0424,-0.484725 -0.0318,-0.701278 -0.0118,-0.531228 0.0584,-1.422654 0.0529,-0.277522 0.0688,-0.370115 0.13849,-0.677995 0.005,-0.02334 -2.6e-4,0.09527 0.005,0.07183 0.0357,-0.173641 -0.023,-0.112006 0.0284,-0.161748 0.0121,-0.239765 0.002,-0.481788 0.0367,-0.719336 0.0486,-0.332462 0.13802,-0.657944 0.21291,-0.98547 0.003,-0.01233 0.01,-0.03519 0.016,-0.05426 0.0353,-0.248367 0.0684,-0.454213 0.0584,-0.28112 0.0845,-0.26434 0.14211,-0.539176 0.25373,-0.793234 0.0808,-0.184068 0.1772,-0.360781 0.27647,-0.535885 -1.02462,-1.313674 -1.08413,-3.632189 0.78962,-6.268349 0.40908,-0.575506 0.8862,-1.14078 1.47743,-1.539441 0.2831,-0.190894 0.58347,-0.355727 0.88935,-0.507463 0.15754,-0.07814 0.3226,-0.141589 0.49041,-0.194821 0.0399,-0.06375 0.0582,-0.09195 0.10645,-0.169497 0.0641,-0.102939 0.15334,-0.188521 0.23513,-0.278019 0.46567,-0.509254 0.3223,-0.345599 0.98805,-0.903306 0.23816,-0.159462 0.2788,-0.189529 0.56379,-0.362252 0.0658,-0.03985 0.12901,-0.08668 0.20103,-0.113688 0.45958,-0.172416 0.93261,-0.306756 1.3906,-0.483175 0.0159,-0.0061 0.0111,-0.0066 0,-0.0052 0.0464,-0.0098 0.0932,-0.02117 0.13954,-0.03152 0.2022,-0.0324 0.4032,-0.06975 0.60616,-0.09715 0.0417,-0.0056 0.0838,-0.0083 0.12557,-0.01344 -0.0313,-0.03178 -0.0647,-0.06128 -0.0956,-0.09353 -0.0539,-0.05622 -0.0388,-1.426285 -0.0398,-1.729095 0.0675,-0.57504 0.0812,-1.181986 0.34313,-1.717725 0.1991,-0.407162 0.44159,-0.793896 0.70642,-1.161685 0.13507,-0.187561 0.2844,-0.380243 0.48368,-0.497128 0.12973,-0.138073 0.26673,-0.262335 0.41032,-0.378272 0.0312,-0.04189 0.0692,-0.09019 0.0858,-0.118854 0.0394,-0.07164 0.079,-0.143338 0.11835,-0.214974 0.003,-0.0071 1.6e-4,-0.01479 0.005,-0.02119 0.10739,-0.195535 0.21849,-0.389369 0.32763,-0.583943 0.33946,-0.580152 0.18688,-0.309428 0.61082,-1.10226 0.11475,-0.21464 0.25553,-0.417631 0.34261,-0.644922 0.0367,-0.0958 0.0143,-0.204679 0.0222,-0.306959 0.0311,-0.39515 0.0201,-0.09793 0.0161,-0.636135 -0.0808,-1.203044 -0.0937,-2.406909 -0.0801,-3.612184 0.0101,-0.559099 0.0101,-0.424132 0.0114,-1.044379 0,-0.131212 0.0122,-0.263144 0,-0.393774 -0.007,-0.07638 -0.0412,-0.147871 -0.0579,-0.222727 -0.018,-0.08066 -0.0322,-0.162216 -0.048,-0.243395 -0.54774,-5e-6 -1.09551,-5e-6 -1.64333,0 h -2.56365 -1.95286 -0.44545 c -0.10482,0 -0.20996,0.01103 -0.31419,0 -0.39174,-0.04142 -0.78112,-0.104725 -1.17151,-0.157096 -0.0683,-0.02127 -0.0687,-0.02053 -0.12764,-0.03876 -0.0302,0.0035 -0.061,0.0068 -0.0915,0.0088 -0.14168,0.0093 -0.28352,0.01595 -0.4253,0.02376 -0.26279,0.01609 -0.52486,-0.0067 -0.78703,-0.0186 -0.0266,-0.0013 0.0532,0.0047 0.0796,0.0083 0.006,7.94e-4 -0.0126,5.29e-4 -0.0186,5.29e-4 -0.0584,5.3e-4 -0.1168,0.0016 -0.17519,0.0021 -0.0481,5.29e-4 -0.0963,-0.0057 -0.14417,0.0011 -0.0309,0.0034 -0.0591,0.02 -0.0899,0.02479 -0.33279,0.05238 -0.70073,0.09742 -1.03663,0.08165 -0.0925,-0.0043 -0.18438,-0.01418 -0.27647,-0.02376 -0.016,-1.51e-4 -0.038,-5.29e-4 -0.0486,-5.29e-4 -0.0668,7.94e-4 -0.13373,0.0019 -0.20051,0.0026 -0.067,5.29e-4 -0.13402,0.0016 -0.20102,0.0021 -0.36531,-0.0016 -0.73019,-0.0019 -1.09554,-0.0016 -0.29292,-1.61e-4 -0.58608,5.29e-4 -0.87902,0 -0.11224,3.7e-5 -0.29093,-3e-6 -0.43046,0 -0.10392,-8e-6 -0.20818,0 -0.31213,0 h -0.28008 c -7.57771,0 -7.57771,-7.654843 0,-7.654832 h 0.28008 c 0.10408,0 0.20807,-1.9e-5 0.31213,0 h 0.44752 c 0.28609,5.29e-4 0.57226,-1.83e-4 0.85834,0 0.34781,-2.04e-4 0.69551,-5.3e-4 1.04335,0.0021 0.28607,-0.0019 0.57995,-0.02005 0.86765,-0.0026 0.0648,-0.008 0.12978,-0.01672 0.19482,-0.02273 0.25964,-0.02405 0.51963,-0.04352 0.77979,-0.06098 0.0534,-0.0036 0.10671,-0.0016 0.1602,-0.0021 0.24592,-0.0016 0.48785,0.0034 0.73381,0.01241 0.0276,-0.0046 0.0822,-0.0118 0.26251,-0.02376 0.19092,-0.01249 0.38178,-0.0307 0.57309,-0.02997 0.72462,0.0028 0.84831,0.057 1.61696,0.212908 h 2.29339 2.56212 c 0.77052,-8e-6 1.54096,0 2.31148,0 -0.054,-0.116398 -0.11125,-0.231219 -0.16586,-0.347266 -0.2821,-0.599283 -0.56494,-1.197213 -0.80976,-1.812808 -0.43844,-0.964306 -0.9874,-1.883995 -1.24696,-2.920751 -0.007,-0.04651 -0.0114,-0.09303 -0.018,-0.139528 -3.18156,-3.594349 -1.70569,-6.991319 1.28881,-7.056417 0.56298,-0.01225 1.18155,0.102018 1.83089,0.346231 v -0.352433 c 0,-0.08212 -0.009,-0.164909 0,-0.246496 0.046,-0.397777 0.11063,-0.792988 0.1659,-1.189591 0.006,-0.02119 0.0111,-0.04236 0.0161,-0.06356 -0.0214,-0.137324 -0.0277,-0.2247 -0.0398,-0.534334 0.0296,-0.473493 0.0114,-0.946819 0.0744,-1.41645 -1.16393,0.06499 -1.25058,-0.05124 -1.13845,-1.117761 -0.0127,-0.142714 -0.0415,-0.286999 -0.0161,-0.426331 0.0949,-0.497758 0.20738,-0.992841 0.34674,-1.480013 0.0783,-0.273791 0.19949,-0.533352 0.3049,-0.797885 0.14119,-0.354084 0.18368,-0.450803 0.27388,-0.639236 0.003,-0.01794 0.006,-0.03594 0.009,-0.05375 v -0.102836 -5.29e-4 c -0.008,-0.03297 -0.0103,-0.06743 0,-0.02532 0,-0.09986 0.003,-0.200027 0.003,-0.299206 0,-0.217154 -0.003,-0.379423 -0.003,-0.593762 -0.005,-1.015498 0.1978,-0.421003 1.64433,-2.245342 0.14142,-0.0066 0.28233,-0.02032 0.42375,-0.03101 0.58418,-0.589513 1.34316,-0.908445 2.16059,-0.894004 z m -4.04987,104.337303 c 0.0852,0.0139 0.13451,0.0215 0.23617,0.0382 0.0458,0.005 0.0916,0.0106 0.13745,0.016 0.0738,-0.27551 0.15346,-0.58967 0.2372,-0.93069 -0.16375,-0.0208 -0.3329,-0.0551 -0.49663,-0.0925 -0.0414,0.34122 -0.0891,0.71989 -0.11419,0.96894 z M 271.7338,30.606715 c -0.0164,0.0032 -0.0394,0.07883 -0.0589,0.151926 0,0.0044 2.1e-4,0.0072 0.003,0.01188 0.0214,-0.04448 0.0406,-0.08481 0.0692,-0.14418 -0.003,-0.01492 -0.008,-0.02061 -0.013,-0.01963 z m -0.0682,0.101801 c 0,0.0037 0.003,0.0084 0.003,0.01241 0,-0.0026 0,-0.0052 0.003,-0.0078 0,-0.0011 -0.003,-0.0026 -0.004,-0.0047 z m 10.05623,17.154509 c -0.0626,0.136906 -0.12618,0.273463 -0.18293,0.412895 -0.0475,0.1167 0.13568,-0.218535 0.16277,-0.341582 0.005,-0.02384 0.0132,-0.04756 0.0201,-0.07131 z m -18.48414,3.12539 c -0.0429,-7.93e-4 -0.0666,0.009 -0.0475,0.04238 0.0519,0.09106 0.20937,0 0.31419,0 h 0.10128 c 0.0154,0.004 -0.0723,-0.0087 -0.10852,-0.01291 -0.064,0.0027 -0.18797,-0.02802 -0.25941,-0.02946 z m -3.50212,0.01704 c 0.1424,0.02858 0.28432,0.06055 0.42788,0.08217 0.1123,0.01691 -0.22194,-0.04881 -0.33279,-0.07338 -0.0752,-0.0062 -0.0401,-0.004 -0.0951,-0.0088 z m 1.41335,7.263122 c -0.0513,-0.0065 0.42996,0.154162 0.50643,0.1695 0.0376,0.0075 0.0759,0.01146 0.11421,0.01447 -0.35679,-0.10945 -0.59652,-0.18093 -0.62064,-0.18397 z m -2.49338,0.301275 c 0.006,0.0011 0.0179,0.0033 0.0238,0.0041 0.0304,0.0043 0.0614,0.0066 0.092,0.0083 -0.0385,-0.0044 -0.0772,-0.008 -0.11576,-0.01241 z m 14.58825,30.336649 c -0.0432,0.264967 -0.0897,0.52936 -0.13901,0.793234 0.16094,-0.207851 0.3234,-0.414491 0.49456,-0.613918 0.0399,-0.04652 0.085,-0.08833 0.13126,-0.128672 -0.19087,-0.02381 -0.32293,-0.03336 -0.48681,-0.05064 z m -0.20669,0.406178 c -0.004,-0.04328 -0.0145,0.306141 -0.019,0.49816 0.0148,-0.01916 0.0296,-0.03821 0.0445,-0.05736 -0.0146,-0.258572 -0.0209,-0.40473 -0.0254,-0.440798 z m -7.91737,3.930507 c -0.009,0.0011 -0.0164,0.0021 -0.0254,0.0031 -0.0106,0.02029 -0.0212,0.04056 -0.0315,0.06098 0.0103,-0.0016 0.0206,-0.0035 0.031,-0.0052 0.009,-0.02117 0.0172,-0.03921 0.0259,-0.05891 z m -12.90411,2.900598 c -0.0161,0.0048 -0.0814,0.105688 -0.16433,0.239781 0.0123,0.0265 0.0246,0.05288 0.0382,0.07855 0.0397,-0.07934 0.0763,-0.159716 0.10852,-0.242364 0.0217,-0.05581 0.026,-0.07854 0.0176,-0.07596 z m -0.36122,0.563274 c -0.1102,0.183243 -0.21945,0.364884 -0.29042,0.472324 -0.0254,0.09523 -0.0492,0.190703 -0.0734,0.286287 0.13675,-0.239319 0.29281,-0.470771 0.4346,-0.708486 -0.0241,-0.01656 -0.047,-0.03345 -0.0708,-0.05012 z m 50.23673,5.373312 c -0.003,0.002 -0.003,0.0141 0,0.0367 0.0312,0.50821 0.0579,0.83138 0.0811,1.04283 0.0199,-0.0239 0.037,-0.0518 0.0522,-0.0822 -0.005,0.0266 -0.01,0.0532 -0.0135,0.0801 -0.004,0.0297 0.0206,-0.0561 0.031,-0.0842 0.0222,-0.0208 0.0172,-0.0151 0.0124,-0.0734 -0.008,0.0247 -0.0172,0.0487 -0.0274,0.0703 0.007,-0.0397 0.0153,-0.0792 0.0238,-0.11885 0,0.0152 0.003,0.0308 0.004,0.046 1.3e-4,0.002 0,5.3e-4 0,0.003 0.0531,-0.15725 0.0688,-0.38265 0.0713,-0.69919 -0.013,0.1469 -0.0273,0.29372 -0.0408,0.44029 -0.006,0.0683 -0.0198,0.13585 -0.0341,0.20308 -0.007,-0.10024 -0.0138,-0.2005 -0.032,-0.2992 -0.029,-0.15578 -0.1133,-0.58191 -0.12661,-0.56482 z m -31.95101,8.67027 c -0.27641,0.16525 -0.53792,0.3513 -0.77258,0.57464 -0.008,0.008 -0.0148,0.0167 -0.0227,0.0248 0.0368,0.0989 0.0711,0.20161 0.0997,0.31161 0.20513,-0.0991 0.51152,-0.26542 0.89762,-0.49558 -0.0694,-0.13751 -0.13636,-0.27624 -0.20203,-0.41548 z m 0.28575,0.57723 c -1.72667,1.80113 -1.40097,1.14876 -1.54667,2.00143 0.47029,-0.69543 1.04124,-1.32452 1.55289,-1.99265 -0.003,-0.003 -0.004,-0.006 -0.006,-0.009 z m -1.18337,0.14573 c -0.0758,0.10927 -0.12938,0.23158 -0.16796,0.36276 0.0647,-0.0313 0.14399,-0.0669 0.26408,-0.12298 -0.0311,-0.0754 -0.0609,-0.14679 -0.0961,-0.23978 z m -0.5638,2.14095 c -0.004,0.0178 -0.008,0.0355 -0.0119,0.0532 0.003,-0.005 0.006,-0.009 0.009,-0.0139 0,-0.0161 0.003,-0.0256 0.003,-0.0393 z m -0.0146,0.0532 c 0,7.9e-4 -1.8e-4,0.002 -0.003,0.003 h 0.003 c 1.9e-4,-7.9e-4 0,-0.002 0,-0.003 z m 9.20049,17.65577 c -0.0185,-8e-4 -0.0656,0.005 -0.11266,0.0108 0.0381,0.005 0.0782,0.0118 0.10904,-0.002 0.014,-0.006 0.0132,-0.009 0.004,-0.009 z m 2.48769,0.26871 c -0.0259,-0.002 -0.051,0.003 -0.0765,0.003 -0.0837,7.9e-4 -0.16158,2.5e-4 -0.23926,-5.3e-4 0.10359,-2.6e-4 0.20648,-7.9e-4 0.31575,-0.003 z" />
    </clipPath>
    <clipPath
       clipPathUnits="userSpaceOnUse"
       id="clipPath18637">
      <rect
         style="opacity:0.923077;fill:#cc0000;fill-opacity:0.389098;stroke:none;stroke-width:0.961001;stroke-linecap:round;stroke-miterlimit:0;stroke-opacity:1;paint-order:fill markers stroke"
         id="rect18639"
         width="11.056701"
         height="17.010309"
         x="239.96451"
         y="75.940079" />
    </clipPath>
    <clipPath
       clipPathUnits="userSpaceOnUse"
       id="clipPath19807">
      <path
         id="path19809"
         style="fill:#ff0000;fill-opacity:1;fill-rule:nonzero;stroke:none;stroke-width:0.264583"
         d="M 209.65387,1.0622637 V 136.52893 H 345.12054 V 1.0622637 Z m 66.22127,25.5235063 0.003,0.0011 v 5.29e-4 z m 0.004,0.0026 h 0.003 0.003 0.003 0.003 v 5.29e-4 h 0.003 v 5.29e-4 l -0.004,5.3e-4 c 0.54253,0.01005 1.10836,0.168761 1.66036,0.478522 0.4389,-0.04493 0.87689,-0.08125 1.32189,-0.100769 0.11634,-0.0051 0.23286,0.0061 0.34933,0.0041 0.0972,-0.0016 0.19389,-0.0065 0.29093,-0.0098 0.10907,-0.0046 0.21868,-0.008 0.32764,-0.01394 0.1075,-0.006 0.21577,-0.03126 0.32297,-0.03411 h 0.004 c 0.0357,-0.0011 0.0715,5.29e-4 0.10697,0.0062 0.44037,0.07035 0.87974,0.162494 1.30225,0.304893 0.23313,0.07854 0.48387,0.364498 0.68006,0.606163 0.0101,0.003 0.0196,0.0061 0.0294,0.0093 0.0745,0.09932 0.3093,0.387628 0.22376,0.297657 -0.062,-0.06527 -0.15084,-0.180361 -0.25374,-0.306959 -0.11702,-0.03657 -0.23651,-0.06854 -0.35655,-0.0987 0.71869,0.58688 0.97345,0.850162 1.04592,1.274342 2.83292,1.594601 2.62097,4.974939 -0.5798,6.274035 -0.0198,0.489977 -0.0739,0.977564 -0.23308,1.444358 -0.0477,0.139991 -0.11506,0.272444 -0.17258,0.40876 0.1143,-0.06475 0.006,-0.01638 -0.0161,0.197922 -0.003,0.01987 0.0305,-0.02773 0.0377,-0.04651 0.0111,-0.03045 0.0169,-0.12848 0.0161,-0.09612 -0.0143,0.55526 -0.007,0.417581 -0.0982,0.907438 0.014,-0.0093 0.0393,-0.04443 0.0424,-0.0279 0.0151,0.0891 -0.003,0.180962 0,0.271301 0,0.221377 0.003,0.442674 0.004,0.664043 0.004,0.465551 0.007,0.93123 0.0103,1.396812 0.0484,0.201393 0.0839,0.349753 0.15608,0.620636 0.004,0.01561 0.014,0.02991 0.0159,0.04599 0.0491,0.516702 0.11872,1.032618 0.13695,1.551326 0.003,0.08241 -0.008,0.164386 -0.0161,0.246496 -2.1e-4,0.04897 0.004,0.0824 0.003,0.140042 -0.006,0.132006 -0.0266,0.262921 -0.0465,0.393776 0.023,-0.01746 -0.003,0.131951 0,0.188101 0.003,0.06141 0.004,0.166364 0.006,0.26045 0.005,0.01855 0.0127,0.04227 0,0.04651 0,0.02127 0,0.04525 0.003,0.06304 7e-5,0.03053 0.031,0.09109 0,0.09147 -0.003,3.2e-5 -0.006,-3.7e-5 -0.008,0 0.004,0.147942 0.008,0.295717 0.008,0.443902 0,0.0546 0.003,0.109575 -0.003,0.163814 -0.0341,0.287425 -0.0706,0.574678 -0.11679,0.860412 0.0109,-0.07276 0.0217,-0.260427 0.0161,-0.195337 h -0.003 c -0.006,0.07011 -0.0111,0.140206 -0.0161,0.210323 0,-0.0024 0.003,-0.0045 0.003,-0.0067 0,0.0048 0,0.0097 -0.003,0.01447 -0.003,0.01146 -0.006,0.0357 -0.009,0.05116 -0.0135,0.159372 -0.0265,0.318638 -0.0398,0.478007 -0.007,0.03913 -0.0106,0.07825 -0.0169,0.117306 -0.003,0.01707 -1.3e-4,0.04277 -0.004,0.05633 -0.0132,0.07096 -0.0525,0.283384 -0.0429,0.211873 0.0122,-0.08995 0.0296,-0.178896 0.046,-0.2682 0.008,-0.08551 0.008,-0.197221 0.003,-0.30851 -0.004,0.0079 -0.007,0.0068 -0.0103,-0.01551 -0.003,-0.02826 1.3e-4,-0.05596 0.004,-0.08372 -8e-5,-5.29e-4 6e-5,-7.94e-4 0,-0.0016 -0.0111,-0.123518 -0.0295,-0.204838 -0.0429,-0.117305 -0.085,0.55986 -0.1239,1.125238 -0.17105,1.689819 -0.0675,-0.670216 -0.24903,-2.22617 -0.32298,-2.153872 -0.0106,0.01138 -0.0209,0.05607 -0.0269,0.14211 -0.048,0.763913 0.20759,1.51569 0.32816,2.272729 0.007,-0.07833 0.0124,-0.156732 0.019,-0.235128 0.003,0.02215 0.006,0.0512 0.008,0.0677 0.007,0.06893 -0.007,0.137022 -0.0279,0.204639 -0.003,-0.01238 -0.004,-0.02482 -0.006,-0.03721 -0.003,0.03287 -0.005,0.06585 -0.008,0.0987 0.006,-0.01913 0.0124,-0.03821 0.0164,-0.05736 0.003,0.01376 0.005,0.0276 0.007,0.04134 -0.0154,0.109646 -0.0351,0.21848 -0.046,0.328663 0,0.007 0.0103,-0.01947 0.0159,-0.01447 0.013,0.0132 0.0156,0.175506 0.0161,0.216524 0.004,0.185476 0.006,0.37106 0.009,0.556557 0.0193,0.487156 -0.019,0.975103 -0.0161,1.461926 2.1e-4,0.04486 0.007,-0.08962 0.0103,-0.134361 1.6e-4,0.09095 -1.4e-4,0.181909 0,0.272852 0.0822,0.112366 0.16965,0.223925 0.23823,0.312645 0.0672,0.07727 0.19023,0.227814 0.28577,0.340545 0.46427,0.01765 0.92803,0.04627 1.3906,0.101288 0.79317,0.05762 1.58231,0.07963 2.37247,0.1881 0.22352,0.03068 0.51265,-0.03219 0.66302,0.135911 0.033,0.0368 0.0771,0.09082 0.11369,0.133324 0.0854,0.0065 0.14949,0.01101 0.22426,0.01707 v 5.29e-4 c -0.0748,-0.0056 -0.14933,-0.01243 -0.22426,-0.01757 0.21251,0.246626 0.48617,0.589267 0.78237,0.969452 0.0396,1.6e-5 0.0792,-3.7e-5 0.11885,0 -0.45664,-0.640744 0.0715,0.100232 -0.67643,-0.951881 1.3276,0.09843 2.6461,0.258683 3.96615,0.435631 0.39191,0.05254 0.78309,0.1099 1.17462,0.164849 0.51517,0.0792 1.03122,0.153802 1.54565,0.237712 0.18706,0.03052 0.37126,0.07533 0.55705,0.11317 h 0.40359 0.67697 0.94723 0.34676 0.25012 0.2537 0.2553 0.25477 0.34054 0.33486 0.4744 0.21135 0.25424 c 7.57764,0 7.57764,7.65483 0,7.65483 h -0.25424 -0.21135 -0.4744 -0.33486 -0.34054 -0.25477 -0.2553 -0.0987 c -0.38711,0.05073 -0.79684,0.08173 -1.23454,0.08527 -0.66228,0.0053 -1.329,-0.0055 -1.9885,-0.07751 -0.0146,0.0036 -0.0222,-2.19e-4 -0.0305,-0.0031 -0.014,-0.0016 -0.0284,-0.0029 -0.0424,-0.0047 h -0.0217 -0.10384 c -0.57846,8e-6 -1.15724,0 -1.73583,0 -0.74192,2.9e-5 -1.48381,5.3e-5 -2.2257,0 -0.65019,-9e-5 -1.30053,2.65e-4 -1.95077,0 -1.23407,-0.0011 -2.46746,-7.94e-4 -3.7016,0.0026 -0.60026,5.29e-4 -1.20116,-0.0019 -1.80145,-0.0052 0.013,0.11891 0.0196,0.127408 0.0429,0.390158 0.0148,0.167772 0.004,0.336825 0.0161,0.504878 0.003,0.03094 0.008,-0.06114 0.0119,-0.09199 0.0915,0.484796 0.13785,0.947303 0.16227,1.450559 0.008,0.167582 -0.0156,0.779277 -0.0217,0.96738 -0.0238,0.738788 -0.004,1.478828 -0.003,2.217955 0.0122,0.454334 -0.003,0.907849 -0.0289,1.360641 0.0302,0.09797 0.0594,0.196381 0.0889,0.294555 0.52398,1.746557 0.21976,3.050725 -0.44855,3.780647 0.005,0.15848 0.013,0.316685 0.0238,0.475941 0.21902,0.102568 0.41124,0.194836 0.4563,0.219106 0.43291,0.232315 0.86381,0.46949 1.27746,0.734322 0.56925,0.364474 1.09669,0.982644 1.54358,1.43609 0.0143,0.02408 0.0708,0.06604 0.0434,0.07235 -0.0382,0.0088 -0.12859,-0.08749 -0.10181,-0.05891 0.11475,0.12218 0.24945,0.224084 0.36845,0.342099 0.74796,0.74159 1.4255,1.547079 2.02314,2.415873 0.19693,0.320667 0.59801,0.978472 0.79375,1.27589 0.13589,0.206571 0.29559,0.397568 0.42169,0.610298 0.0952,0.160777 0.18667,0.32366 0.27697,0.48731 0.16497,0.165513 0.3306,0.330417 0.49197,0.499195 0.0222,0.02323 0.0666,0.06792 0.0987,0.103351 v 5.29e-4 c 0.0733,0.05279 0.14423,0.10826 0.20979,0.170532 0.73835,0.701527 1.19515,1.487347 1.4242,2.474267 0.15322,0.658934 0.17515,0.460687 0.14317,0.716751 -0.0898,-0.126844 0.0474,0.05594 0.0164,0.117824 -0.007,0.01633 -0.0206,-0.0074 -0.0341,-0.03669 0.28318,0.786228 0.13269,0.187304 0.3633,1.129128 0.004,0.0163 -0.0127,-0.0311 -0.0196,-0.04651 0.0432,0.165407 0.0413,0.152577 0.0677,0.254249 0.35314,0.06794 0.7135,0.12488 0.96893,0.35915 2.15048,1.971797 1.8986,1.965558 1.98594,4.008025 0.50903,-0.373457 1.14239,-0.577138 1.84589,-0.569473 1.44383,0.01572 3.17608,0.914855 4.70098,3.026688 0.78396,1.085614 1.1208,2.411031 1.16427,3.732588 0.0101,0.273082 0.007,0.54638 0.0103,0.819589 -0.0434,0.662424 -0.005,1.327526 -0.0254,1.990058 -0.0108,0.353928 -0.0294,0.707647 -0.0439,1.061435 -0.069,0.891508 -0.0818,1.786901 -0.14935,2.678391 -0.0177,0.23528 -0.0259,0.4727 -0.0708,0.70435 -0.0599,0.30928 0.0557,0.8839 -0.15552,1.01802 0.0705,0.50364 0.0971,-0.14412 0.0801,0.2589 0,0.0112 0.003,-0.0159 0.003,-0.0119 0.003,0.23545 0.003,0.47092 0.003,0.70641 -1.6e-4,0.14451 0,0.28918 0,0.43356 0.005,7.3142 -7.1247,7.57129 -7.62537,0.76636 -0.22566,-4e-5 -0.45127,5.3e-4 -0.67696,0 -0.71647,-0.002 -1.4333,0.007 -2.14974,0.001 -0.93872,-0.006 -1.87622,-0.001 -2.81483,0.016 -0.54713,-0.0103 -0.41817,2.1e-4 -1.08778,-0.0584 -0.0375,-0.003 -0.14994,-0.0136 -0.11266,-0.0186 0.15793,-0.0193 0.63543,-0.0219 0.47647,-0.0269 -1.32102,-0.0405 -0.89139,-0.001 -0.78703,0.009 -0.0456,0.0549 -0.0708,0.0888 -0.1261,0.15555 -0.22411,0.2521 -0.4472,0.50527 -0.67334,0.75551 -0.10004,0.11063 -0.14523,0.1487 -0.22273,0.23202 2.86107,0.20411 5.69071,0.44661 2.71301,2.73886 -0.33676,0.25926 -0.67402,0.51847 -1.01079,0.77773 -0.26289,0.13772 -0.52125,0.28355 -0.78806,0.41341 -0.64574,0.3141 -2.03266,0.9179 -2.60863,1.15755 -0.53798,0.22384 -0.36378,0.0998 -0.89763,0.32453 -0.15589,0.0657 -0.30567,0.14527 -0.45836,0.21807 -0.15576,0.0638 -0.31176,0.12744 -0.46715,0.19224 0.0587,0.0494 0.12258,0.0929 0.18034,0.14366 2.82702,2.48539 3.09433,5.14613 1.93064,6.60786 4.41084,0.69223 5.32109,4.40773 2.73627,6.35104 4.34668,2.96487 1.72191,8.31009 -4.60179,6.20221 -0.69903,-0.23305 -0.40744,-0.15061 -1.24437,-0.35296 -0.21074,-0.051 -0.42013,-0.10669 -0.63304,-0.14779 -0.88151,-0.1701 -0.23886,-0.0316 -0.71622,-0.0863 -0.31362,-0.0359 -0.62625,-0.0781 -0.93949,-0.1173 -0.51604,-0.0762 -1.03425,-0.13925 -1.55236,-0.20103 -0.0204,0.43845 0.35687,0.74138 1.387,0.82321 -0.22495,0.0292 -0.61767,0.0757 -0.77515,0.046 -0.33729,-0.0636 -0.66442,-0.16954 -0.98909,-0.28319 -0.022,0.003 -0.0477,0.006 -0.0615,0.007 -0.008,5.3e-4 -0.0114,8e-4 -0.0161,0.001 0.0183,-0.0108 0.0413,-0.0134 0.0677,-0.0109 -0.32043,-0.11232 -0.63899,-0.23212 -0.96427,-0.32659 -0.0529,-0.0154 0.0937,0.0578 0.14211,0.0842 0.21532,0.11743 0.42968,0.17415 0.67074,0.25683 0.0268,-0.001 0.0375,-5.3e-4 0.0724,-0.003 v 5.3e-4 5.3e-4 c -0.006,0.004 -0.0119,0.008 -0.0161,0.0129 -0.005,0.007 0.52469,0.0718 -0.0161,0.003 -0.0143,-0.005 -0.0262,-0.009 -0.0403,-0.0139 -0.24128,0.011 -0.27544,0.01 -0.65837,0.0186 -0.23222,-0.005 -0.46458,-0.006 -0.69659,-0.0155 -0.88088,-0.0362 -1.75438,-0.16869 -2.63343,-0.22738 -0.0832,-0.01 -0.16642,-0.0182 -0.24958,-0.0279 -0.103,0.10582 -0.44037,-0.0545 -0.63304,-0.0646 -0.16825,-0.009 -0.33541,-0.0319 -0.50281,-0.0517 -0.34462,1.28741 -0.55089,1.70459 -0.37362,-0.0543 0.0842,0.0137 0.13361,0.0211 0.2346,0.0377 0.0458,0.005 0.0916,0.0106 0.13745,0.016 0.0738,-0.27551 0.15346,-0.58966 0.2372,-0.93069 -0.16375,-0.0208 -0.33284,-0.0551 -0.49659,-0.0925 -0.0414,0.34121 -0.0891,0.71988 -0.11422,0.96894 -0.96195,-0.15682 -1.01444,-0.15814 -2.21226,-0.41859 -0.60934,-0.13249 -1.21846,-0.26627 -1.8247,-0.41237 -0.2014,-0.0485 -0.40844,-0.0867 -0.59738,-0.17157 -0.0352,-0.0159 0.006,-0.0987 -0.031,-0.1111 -0.094,-0.0318 -0.19897,0 -0.29818,0 h -1.37613 v -0.002 c -7.57788,0 -7.57788,-7.65483 0,-7.65483 h 1.37613 c 0.0744,0 0.15009,-0.008 0.22428,-0.006 0.0249,7.9e-4 0.0494,0.002 0.0739,0.006 0.22368,0.0338 0.27112,0.0416 0.43667,0.0667 -0.19153,-0.46555 -0.25802,-0.66387 -0.42995,-1.20147 -0.0164,-0.0807 -0.0365,-0.17048 -0.0558,-0.25839 -0.0801,-0.0879 -0.14885,-0.1736 -0.21757,-0.25889 -0.99599,1.38081 -1.90415,1.86641 -2.47065,-0.7643 -0.0726,-0.337 -0.21846,-0.6666 -0.21808,-1.01131 0.002,-2.08596 0.22904,-1.82357 1.44953,-3.56515 0.52946,-0.28991 1.04045,-0.61581 1.58803,-0.86972 0.19542,-0.0906 0.41556,-0.11571 0.62683,-0.1571 0.21476,-0.0421 0.43058,-0.0767 0.64698,-0.10696 0.0143,-0.0902 0.0372,-0.1776 0.0832,-0.25735 0.0103,-0.0176 0.0198,-0.0343 0.0305,-0.0517 -0.0251,0.11741 -0.0423,0.20985 -0.0579,0.30024 0.007,-7.9e-4 0.0119,-1.5e-4 0.018,-0.002 0,-0.008 0.003,-0.022 0.003,-0.0284 0.0167,-0.10609 0.0387,-0.21096 0.062,-0.31574 -0.007,0.0107 -0.0119,0.0215 -0.018,0.032 0.0135,-0.062 0.0257,-0.11589 0.0398,-0.17674 -0.003,0.0257 -0.005,0.0528 -0.007,0.0858 0.0241,-0.10549 0.0489,-0.21084 0.0734,-0.31626 0.004,-0.043 0.008,-0.0799 0.0146,-0.12816 -0.0201,0.0823 -0.0459,0.19561 -0.0708,0.30489 0.0124,-0.10823 0.0401,-0.2482 0.11007,-0.66921 -0.008,0.0855 -0.0225,0.23019 -0.0367,0.3638 0.0405,-0.16401 0.0656,-0.2578 0.0491,-0.16898 -0.0183,0.0995 -0.0409,0.19849 -0.0636,0.29714 -0.0159,0.15813 -0.0209,0.26351 -0.003,0.15761 0.0384,-0.19095 0.0652,-0.35342 0.0853,-0.49764 0.003,-0.0207 0.005,-0.0525 0.006,-0.0677 0.009,-0.15287 0.0236,-0.30549 0.0393,-0.45785 0.003,-0.021 0.004,-0.0263 0.006,-0.0434 0.008,-0.30068 -0.0228,-0.39669 0.0491,-0.46819 -0.003,-0.44295 -0.0116,-0.88619 0.008,-1.3286 -0.13973,-0.44858 -0.21881,-0.79369 -0.0956,-0.64905 -0.0411,-0.6326 -0.0502,-0.58803 -0.0284,-1.33377 -0.11968,-0.41408 -0.22871,-0.79776 -0.10335,-0.38241 -0.24114,-0.95209 -0.0832,-0.32814 -0.29043,-1.31103 0,0.002 -0.006,-0.0142 -0.01,-0.0186 -0.0338,-0.0281 -0.0413,-0.12448 -0.0403,-0.17622 0.006,0.0159 0.0106,0.0281 0.0161,0.0491 0.004,0.0169 0.007,0.0328 0.0119,0.0496 -0.0177,-0.0835 -0.003,-0.0192 -0.0269,-0.12402 -0.003,-0.0149 -0.005,-10e-4 -0.006,0.009 -0.055,-0.14677 -0.10035,-0.26666 -0.12247,-0.33228 -0.0544,-0.0936 -0.10719,-0.18868 -0.15193,-0.28732 -0.0238,-0.0529 -0.0352,-0.086 -0.0558,-0.13333 -0.14105,0.0484 -0.2794,0.10369 -0.42066,0.1509 -0.90755,0.30313 -1.86253,0.59571 -2.82461,0.632 -0.9135,0.0144 -1.82861,0.0375 -2.74042,-0.0377 0.0733,-0.0205 0.29574,-0.0621 0.21963,-0.0615 -0.27967,0.002 -0.55648,0.0687 -0.83613,0.0667 -0.72554,-0.006 -1.43718,-0.16515 -2.13165,-0.35915 -0.66779,-0.16646 -1.34281,-0.2934 -2.01176,-0.45682 -0.60571,-0.14795 -0.56734,-0.17161 -1.2082,-0.31522 -0.15466,-0.0347 -0.31224,-0.0574 -0.46818,-0.0858 -2.01426,-0.36622 -3.37001,-1.18642 -4.14807,-2.15697 -0.10048,0.76936 -0.82761,1.18079 -1.6645,0.84388 -0.005,0.009 -0.009,0.0175 -0.0139,0.0263 -0.007,0.0129 -0.0132,0.0266 -0.0212,0.0388 -0.0115,0.0174 -0.016,0.0237 -0.0227,0.0336 0.002,0.003 0.003,0.005 0.005,0.008 0.008,0.0208 0.011,0.0247 0.0181,0.0496 0.002,0.009 0.004,0.0178 0.006,0.0269 0.005,0.0218 0.0105,0.043 0.0124,0.0651 0.007,0.0442 0.0187,0.088 0.0217,0.13282 -5.3e-4,0.0196 -8e-4,0.0389 0,0.0584 1.3e-4,0.006 1.6e-4,0.0116 5.3e-4,0.0176 2.4e-4,0.008 7.9e-4,0.0158 0.001,0.0238 -1e-4,0.008 -5.3e-4,0.0168 0,0.0248 3e-5,0.004 1.1e-4,0.008 5.3e-4,0.0119 0.002,0.0305 0.003,0.0619 0,0.0925 -0.003,0.0275 -0.005,0.0552 -0.0103,0.0827 0,0.005 -2.7e-4,0.011 -0.002,0.016 -0.002,0.012 -0.002,0.0206 -0.003,0.03 0.001,-2e-5 0.008,1e-5 0.008,0 0.005,0 0.011,1e-5 0.016,-5.3e-4 l -5.2e-4,-5.2e-4 c 0.0455,-0.004 0.0669,0.0205 0.062,0.0434 0.003,4e-5 0.007,0 0.0103,0 h 10e-4 c 0.003,-7.9e-4 0.005,-0.002 0.008,-0.002 0.009,-0.002 0.021,7.9e-4 0.03,0 9e-5,2.6e-4 1.5e-4,2.6e-4 5.3e-4,0.002 -0.002,-2.3e-4 -0.004,-2.6e-4 -0.005,5.3e-4 0.002,-3e-5 0.003,-1e-5 0.005,0 h 5.3e-4 c 5.3e-4,8e-5 1.4e-4,10e-4 0.002,10e-4 -5.3e-4,-10e-6 -1.5e-4,0 -0.002,0 0.007,0.0254 0.0162,0.0503 0.0181,0.0765 2.6e-4,0.005 -0.01,0.003 -0.015,0.003 -0.009,7.9e-4 -0.0181,5.3e-4 -0.0274,5.3e-4 -0.002,5.3e-4 -0.004,5.3e-4 -0.005,10e-4 -0.005,0.001 -0.009,0.002 -0.0139,0.003 0.0292,0.005 0.063,0.0101 0.0734,0.0108 0.01,0.001 0.0191,0 0.0289,0 l -5.3e-4,5.3e-4 c 0.0789,0 0.0789,0.0796 0,0.0796 -0.003,0 -0.005,5.3e-4 -0.008,5.3e-4 0.0164,0.0118 0.026,0.0254 0.0243,0.0388 0.0226,0.0143 0.0161,0.0361 -0.003,0.0517 0.0104,0.002 0.022,0.004 0.0393,0.008 0.0154,0.003 0.031,0.007 0.0465,0.009 0.004,5.3e-4 0.009,0 0.0129,0 l 5.3e-4,-5.3e-4 c 0.0789,0 0.0789,0.0801 0,0.0801 -0.004,0 -0.009,5.3e-4 -0.0129,0 -0.0189,-0.003 -0.085,-0.0131 -0.10697,-0.0191 -0.0223,-0.006 -0.0455,-0.0121 -0.0677,-0.0181 0.0116,0.0199 0.012,0.0402 -0.006,0.0486 0.008,7.9e-4 0.0155,1.1e-4 0.0222,0.003 0.0129,3e-5 0.025,0 0.0372,0 0.31523,2.5e-4 0.3153,0.31936 -5.3e-4,0.31936 -0.0146,0 -0.0288,-10e-4 -0.0434,-10e-4 -0.002,5.3e-4 -0.004,5.3e-4 -0.006,10e-4 -0.005,6e-5 -0.009,7.9e-4 -0.0139,0.001 -0.0235,0.001 -0.0268,0.003 -0.0217,0.004 -0.0303,0.007 -0.0648,0.017 -0.0842,0.007 -0.0127,-8e-5 -0.0246,-6e-5 -0.0372,0 -0.01,1e-4 -0.0184,1e-5 -0.0284,0 h -0.016 c -0.0103,0.0102 -0.0289,0.016 -0.0553,0.0119 -0.006,-0.001 -0.0118,-0.002 -0.0181,-0.003 -0.01,-0.002 -0.0185,-0.003 -0.0284,-0.004 -0.003,-8e-4 -0.005,-5.3e-4 -0.007,-0.002 -0.008,0.0145 -0.0271,0.0259 -0.0584,0.0243 -0.0103,-0.001 -0.0211,-0.002 -0.0315,-0.002 -0.002,9e-5 -0.005,0.001 -0.007,0.001 -0.006,0 -0.0121,-2.6e-4 -0.0181,-0.002 -8e-4,-2e-4 -0.002,-5e-5 -0.003,-5.2e-4 h -5.3e-4 c -2.4e-4,5e-5 -2.6e-4,1e-5 -0.002,0 v -5.3e-4 c -5.2e-4,-2.2e-4 -5.2e-4,-8e-4 -0.002,-10e-4 h -5.3e-4 c -5.3e-4,-1.9e-4 -1.5e-4,-1.9e-4 -0.002,-5.3e-4 h -10e-4 c -7.9e-4,-2.2e-4 -5.3e-4,-6e-5 -0.002,-5.3e-4 -0.008,-0.003 -0.0166,-0.004 -0.0248,-0.007 0.005,0.005 0.0123,0.005 0.0191,0.007 10e-4,2.6e-4 0.002,5.3e-4 0.003,5.3e-4 -0.002,1.4e-4 -0.005,6e-5 -0.008,5.3e-4 -0.012,2e-4 -0.0234,-1.1e-4 -0.0357,0 -0.007,0 -0.009,5.3e-4 -0.0191,-0.003 -10e-4,-5.3e-4 -0.002,-5.3e-4 -0.003,-0.001 -0.006,8e-4 -0.0128,-2.6e-4 -0.0186,-0.003 h -5.3e-4 c -0.001,5e-5 -0.003,-6e-5 -0.004,0 -0.0142,7.9e-4 -0.0282,5.3e-4 -0.0424,5.3e-4 -0.0124,-2e-5 -0.0248,3e-5 -0.0372,0 -0.009,-6e-5 -0.0169,-1e-5 -0.0258,0 h -0.0104 c -0.0148,3e-5 -0.0274,-0.003 -0.0367,-0.007 -0.01,-0.002 -0.0304,-0.0138 -0.0584,-0.0346 -0.0251,-0.008 -0.0467,-0.0181 -0.0646,-0.0305 h -0.003 -0.0103 c -0.27518,4e-5 -0.30987,-0.24212 -0.10542,-0.30437 -0.0383,-0.0291 0.12001,-0.0338 0.0517,-0.0615 -0.002,-0.001 -0.004,-0.003 -0.006,-0.003 -5.3e-4,-1.6e-4 -5.3e-4,-5.3e-4 -0.003,-5.3e-4 0.0134,2.2e-4 0.0265,-5.3e-4 0.0398,-10e-4 0.002,-0.006 0.004,-0.0131 0.007,-0.0305 -0.005,-0.0334 -0.0134,-0.0352 0.003,-0.0351 0.001,0 0.002,-3e-5 0.004,0 h 0.006 c 8e-4,5e-5 1e-5,-5e-5 0.002,0 0.004,0 0.008,-3e-5 0.0124,0 0.005,0 0.0115,-4e-5 0.0165,0 0.0171,4e-5 0.0341,-1.1e-4 0.0512,-5.3e-4 -8e-4,-0.003 -0.002,-0.007 -0.002,-0.0108 -0.001,-0.0234 -7e-5,-0.0464 5.3e-4,-0.0698 5e-5,-0.001 -8e-5,-0.003 0,-0.004 -0.0245,-0.005 -0.0489,-0.01 -0.0734,-0.015 -0.0167,-0.004 -0.0328,-0.008 -0.0496,-0.0108 -0.0309,-0.006 -0.062,-0.01 -0.093,-0.016 0.002,-0.002 0.003,-0.005 0.004,-0.007 -0.008,-0.005 -0.0145,-0.0116 -0.0165,-0.0191 h -5.3e-4 c -0.009,0.014 -0.0299,0.0233 -0.061,0.0176 -0.002,-2.6e-4 -0.003,-7.9e-4 -0.005,-0.001 -0.0149,0.003 -0.0252,0.003 -0.0243,-0.005 -0.0172,-0.006 -0.0294,-0.0205 -0.0295,-0.061 -1.7e-4,-0.0138 0.0131,-0.0181 0.0284,-0.0191 0.0198,-0.001 0.0435,0.004 0.0486,0.005 0.0204,0.003 0.0406,0.006 0.061,0.0108 -0.008,-0.005 -0.0152,-0.0101 -0.0233,-0.015 -0.0112,-0.0102 -0.01,-0.011 -0.0202,-0.0186 -0.001,-0.001 -0.003,-0.002 -0.004,-0.003 -8e-4,-5.3e-4 -0.001,2.1e-4 -0.002,-0.002 l -5.3e-4,5.3e-4 c -0.006,-0.003 -0.0124,-0.006 -0.0186,-0.008 -0.004,-0.003 -0.008,-0.004 -0.01,-0.007 -0.0131,-0.0133 -0.0323,-0.0355 -0.0191,-0.0579 0.007,-0.0107 0.0184,-0.0167 0.03,-0.0222 -0.0596,-0.0176 -0.07,-0.0194 -0.13746,-0.0491 -0.009,-0.004 -0.0535,-0.0245 -0.0615,-0.0377 -0.008,-0.0118 -0.0204,-0.0279 -0.0135,-0.0398 0.0115,-0.0188 0.0383,-0.0211 0.0574,-0.032 0.0192,0.0101 0.0122,0.005 0.0212,0.0114 0.0129,0.008 0.0219,0.0164 0.0274,0.0253 0.0674,0.0299 0.0699,0.0284 0.14263,0.0501 10e-4,-0.007 0.005,-0.016 0.0114,-0.0305 -0.003,0.002 -0.007,0.004 -0.01,0.006 -0.003,0.002 -0.005,-0.004 -0.007,-0.006 -0.007,-0.009 -0.0126,-0.0191 -0.0186,-0.0289 -0.0159,-0.0271 -0.0153,-0.0218 -0.0243,-0.061 -0.002,-0.009 -0.002,-0.0178 -0.003,-0.0269 -0.005,-0.0418 0.0156,-0.0643 0.0372,-0.0641 0.0191,1.9e-4 0.0386,0.0179 0.0419,0.0548 0.001,0.009 0.002,0.0277 0.005,0.0357 0.002,0.006 0.007,0.0116 0.0104,0.0176 0.005,0.008 0.011,0.0168 0.016,0.0248 0.006,0.009 0.0189,0.0164 0.017,0.0269 -2.3e-4,0.001 -1.1e-4,0.003 -5.3e-4,0.004 0.007,0.002 0.0134,0.004 0.0202,0.006 0.0466,0.0139 0.0827,0.024 0.12248,0.0377 1.5e-4,-0.011 0,-0.022 0,-0.0331 2.6e-4,-0.14697 2e-4,-0.14811 0,-0.29559 -2.4e-4,-0.0589 -2.6e-4,-0.11786 -5.3e-4,-0.17673 -2.5e-4,-0.001 -1e-5,-0.002 -5.3e-4,-0.003 -0.012,-0.0307 -0.0251,-0.0609 -0.0341,-0.0925 -0.003,-0.009 -0.005,-0.0189 -0.007,-0.0279 -0.009,-0.0368 -0.007,-0.026 -0.0103,-0.0506 -0.001,-0.0157 -0.003,-0.0251 -0.003,-0.0403 -7.9e-4,-0.0318 0.002,-0.0634 0.005,-0.0951 -0.0216,-0.0386 -0.0496,-0.0994 -0.0253,-0.12299 0.001,-10e-4 0.002,-0.002 0.004,-0.003 v -5.3e-4 c -0.002,-0.0155 -0.003,-0.0316 -0.003,-0.0341 0,-0.0174 -0.012,-0.0442 0.003,-0.0522 0.0102,-0.005 0.0191,-0.01 0.0274,-0.0134 -0.11658,-0.0998 -0.23284,-0.20895 -0.34727,-0.34882 -0.0451,-0.0551 -0.0965,-0.10516 -0.13539,-0.16485 -0.24707,-0.37878 -0.43142,-0.7213 -0.59583,-1.13584 -0.0246,-0.062 -0.0942,-0.26908 -0.11679,-0.33539 -0.0148,-0.043 -0.0273,-0.087 -0.0444,-0.12919 -0.0244,-0.0606 -0.0775,-0.158 -0.10387,-0.2191 -0.003,-0.008 -0.007,-0.0167 -0.0103,-0.0248 -0.0189,-0.007 -0.0375,-0.0136 -0.0563,-0.0207 -0.009,-0.0605 -0.0183,-0.12091 -0.0274,-0.18138 -0.0199,-0.0481 -0.0403,-0.096 -0.0599,-0.14418 -0.13825,-0.33823 -0.0501,-0.15595 -0.16744,-0.38447 -0.043,-0.0129 -0.0105,-0.002 -0.062,-0.10336 -0.0787,-0.15531 -0.0767,-0.16429 -0.13849,-0.34623 -0.0117,-0.0345 -0.0524,-0.13568 -0.0336,-0.10438 0.0221,0.0368 0.0289,0.081 0.0434,0.12144 0.23905,0.30835 0.33322,0.43662 0.33951,0.43666 -1e-4,-7.9e-4 1.1e-4,-2.6e-4 0,-0.002 -0.003,-0.0202 -0.24681,-0.39371 -0.48627,-0.908986 -0.0253,-0.05336 -0.005,-0.118661 -0.0191,-0.1757 -0.005,-0.01974 0.005,0.07401 -0.0103,0.06046 -0.0271,-0.02418 -0.0253,-0.06785 -0.0367,-0.10232 -0.0246,-0.07431 -0.0472,-0.149643 -0.0708,-0.224276 -0.0472,-0.173377 -0.10637,-0.35206 -0.10438,-0.534334 7.9e-4,-0.06979 0.006,-0.139338 0.0124,-0.208773 -0.009,-0.01458 0.002,-0.03674 5.3e-4,-0.05478 -0.001,-0.02032 -0.002,-0.04064 -0.002,-0.06098 -0.002,-0.108114 -10e-4,-0.216405 -10e-4,-0.324527 10e-4,-0.205719 10e-4,-0.411303 10e-4,-0.617019 -0.003,-0.256797 0.005,-0.522534 0.0992,-0.76481 0.04,-0.102579 0.0934,-0.199488 0.14004,-0.299207 0.0295,-0.04653 0.0582,-0.09379 0.0889,-0.139525 l 5.3e-4,-5.29e-4 c 0.0368,-0.08301 0.0738,-0.166074 0.11059,-0.249079 0.0471,-0.07063 0.0867,-0.146674 0.14108,-0.211873 0.25791,-0.309335 0.58868,-0.550122 0.91467,-0.781865 0.0384,-0.02846 0.0785,-0.05288 0.11989,-0.07545 -0.0153,-0.07239 -0.0295,-0.126559 -0.0517,-0.255281 -0.0113,-0.06552 -0.0179,-0.132136 -0.0279,-0.197922 -0.0111,-0.07637 -0.0207,-0.152923 -0.0341,-0.228925 -0.0109,-0.06172 -0.0342,-0.121428 -0.0382,-0.18397 -0.0113,-0.17385 -0.0126,-0.348189 -0.0155,-0.522449 -0.008,0.04639 -0.0151,0.09294 -0.0212,0.139528 -0.003,-0.02384 -0.005,-0.04741 -0.008,-0.07131 -0.006,-0.05552 -0.0121,-0.111366 -0.0181,-0.166915 -0.003,-0.02825 -0.005,-0.05648 -0.008,-0.08475 -0.003,-0.08315 0.002,-0.02233 -0.0217,-0.140558 -0.035,-0.180112 -0.0547,-0.345008 -0.0677,-0.529166 0,-0.0016 0.002,0.0019 0.003,0.0031 0.005,0.02069 0.0185,0.08322 0.0155,0.06201 -0.009,-0.069 -0.0297,-0.136416 -0.0367,-0.205674 -0.022,-0.205613 -0.0209,-0.406818 -0.0119,-0.612364 0.009,0.02633 0.0297,0.106717 0.0269,0.07906 -0.006,-0.0574 -0.0266,-0.112377 -0.0346,-0.169497 -0.0231,-0.169911 -0.0355,-0.334344 -0.0305,-0.504365 v -0.373618 h -0.002 c 0,-1.140071 0.49111,-1.782138 1.0542,-1.950786 -0.002,-7.94e-4 -0.004,-0.0013 -0.006,-0.0021 -0.004,-0.0016 -0.009,-0.0024 -0.0124,-0.0062 -0.002,-0.0021 -0.003,-0.004 -0.004,-0.0062 -0.0101,-0.0031 -0.006,-0.0049 -0.0269,-0.03721 -0.002,-0.0026 -0.002,-0.0118 0,-0.0093 0.0104,0.0145 0.0173,0.03151 0.0269,0.04651 0.001,2.65e-4 0.003,5.29e-4 0.005,0.0011 0.003,5.29e-4 0.005,0.0013 0.006,0.0016 -0.003,-0.0033 -0.0296,-0.02093 -0.0377,-0.06563 -0.001,-0.0064 0.008,-0.01542 0.0176,-0.02222 0.001,-0.0019 0.001,-0.0035 0.002,-0.0052 0.003,-0.005 0.006,-0.0093 0.0104,-0.01344 -8e-4,-0.01143 -0.001,-0.02318 -0.002,-0.03462 -4e-5,-0.0031 0.006,-2.64e-4 0.0114,0.0021 3e-5,-5.29e-4 -4e-5,-0.0016 0,-0.0021 0,-0.0016 0.003,0.0011 0.005,0.0011 0.001,5e-6 0.002,-7.94e-4 0.002,0 -2.3e-4,0.0013 -2.3e-4,0.0019 -5.3e-4,0.0031 10e-4,2.65e-4 0.002,0.0019 0.003,0.0021 2e-4,-5.29e-4 2.2e-4,-0.0016 5.3e-4,-0.0021 4e-5,-0.0016 -1e-5,-0.0036 0,-0.0052 0,-2.65e-4 7.9e-4,5.29e-4 0.001,5.29e-4 h 5.3e-4 c 2e-4,-5.29e-4 2.2e-4,-0.0011 5.2e-4,-0.0016 8e-4,-0.0019 0.002,-0.0016 0.005,-0.0011 h 5.3e-4 c 5.3e-4,-0.0011 5.3e-4,-0.0024 10e-4,-0.0036 0.002,-0.0041 0.003,-0.0079 0.005,-0.01188 v -5.3e-4 -5.29e-4 c -0.002,-7.93e-4 -0.004,-0.0016 -0.006,-0.0026 -0.005,-0.0027 -0.01,-0.0072 -0.015,-0.01085 -0.003,-0.0063 -0.006,-0.0123 -0.009,-0.0186 0.002,0.0016 0.004,0.0029 0.006,0.0041 -0.004,-0.0074 -0.008,-0.01543 -0.0104,-0.02379 -0.001,-0.0062 -0.003,-0.02228 -0.004,-0.02687 -10e-6,-5.29e-4 -5.3e-4,-0.0019 0,-0.0021 5.2e-4,-2.62e-4 5.2e-4,0.0021 5.2e-4,0.0016 0,-0.0036 -2.3e-4,-0.0067 -5.2e-4,-0.01035 -10e-4,-0.0164 0.003,-0.03196 0.008,-0.04754 0,-2.62e-4 0.001,-0.0026 0.002,-0.0041 1.2e-4,-2.65e-4 5.3e-4,-7.94e-4 5.3e-4,-0.0011 l 5.3e-4,-5.29e-4 c 1e-4,-5.29e-4 -8e-5,-5.29e-4 0,-0.0011 -0.0184,-0.02783 0.003,-0.0677 0.0636,-0.0677 h 0.0108 0.016 c 0.007,0 0.0137,6e-6 0.0207,0 0.008,-2e-6 0.0151,3e-6 0.0181,0 0.006,-3.1e-5 0.0125,-2.56e-4 0.0186,0 0,0 5.3e-4,0 5.3e-4,0 0,0 5.3e-4,0 5.3e-4,0 0.01,-0.0033 0.0179,-0.0038 0.0269,-0.0036 h 0.0119 0.0227 c 0.0243,0 0.0487,2e-6 0.0729,0 0.0133,2e-6 0.0265,3.9e-5 0.0398,0 0.01,-1.4e-5 0.0195,-1.3e-4 0.0295,0 0.006,-1.09e-4 0.011,-5.3e-4 0.0165,-5.3e-4 0.006,-2.6e-5 0.011,2.65e-4 0.0165,0.0016 0.002,2.59e-4 0.005,0.0011 0.008,0.0011 0.0144,5.29e-4 0.0285,-0.0011 0.0429,0 7.9e-4,4.3e-5 10e-4,5.29e-4 0.002,5.29e-4 2.7e-4,-1.16e-4 8e-4,6.1e-5 0.001,0 0.007,-0.0013 0.0132,-0.0031 0.0202,-0.0026 h 0.047 10e-4 c 0.0278,0 0.0472,0.0084 0.0584,0.02016 0.0333,0.01069 0.0507,0.03316 0.0393,0.05478 0.0322,0.01881 0.0356,0.05188 -0.005,0.0677 -0.002,0.0013 -0.005,0.0021 -0.007,0.0031 -2.6e-4,0.0083 -1.5e-4,0.01648 -5.2e-4,0.02479 0.006,0.03576 0.0131,0.05209 0.0139,0.05943 0.002,1.27e-4 0.003,2.25e-4 0.005,5.29e-4 0.0326,0.0039 0.0258,0.0028 0.0625,0.0067 0.0312,0.0033 0.0605,0.0027 0.0698,0.03462 0.004,0.0055 0.007,0.01114 0.0114,0.01654 -0.004,0.0088 -0.006,0.01783 -0.0103,0.02687 -0.003,0.0083 -0.007,0.0163 -0.0119,0.02326 -0.005,0.0064 -0.0215,0.0076 -0.0305,0.0088 -0.003,2.64e-4 -0.005,7.93e-4 -0.008,0.0011 -0.013,0.0011 -0.0258,0.0016 -0.0388,0.0026 -0.0107,5.29e-4 -0.0213,0.0019 -0.032,0.0021 -0.0142,2.65e-4 -0.0527,0.0011 -0.0889,0.0011 0.47501,0.104206 0.91264,0.545914 1.07022,1.326533 0.61001,-0.412594 1.41065,-0.656891 2.36265,-0.651124 0.98985,0.006 2.14242,0.281329 3.41323,0.916739 0.14175,0.07088 0.30957,0.10459 0.42529,0.212908 0.15547,0.145576 0.28144,0.260368 0.42323,0.389641 0.046,-0.07313 0.0893,-0.147777 0.13385,-0.221691 0.13131,-0.187452 0.26271,-0.374923 0.39429,-0.56224 -0.0149,-0.102518 -0.0405,-0.437097 -0.0424,-0.484725 -0.0318,-0.701291 -0.0118,-0.531225 0.0584,-1.422654 0.0529,-0.277524 0.0688,-0.370115 0.13849,-0.677994 0.005,-0.02334 5.3e-4,0.09527 0.005,0.07183 0.0357,-0.173638 -0.0235,-0.112008 0.0279,-0.161747 0.0121,-0.239771 0.002,-0.481793 0.0372,-0.719336 0.0486,-0.332471 0.13806,-0.657945 0.21291,-0.98547 0.003,-0.01233 0.0105,-0.03519 0.0155,-0.05426 0.0353,-0.248367 0.0689,-0.454213 0.0589,-0.28112 0.0845,-0.264345 0.14212,-0.539173 0.25373,-0.793234 0.0808,-0.184068 0.17721,-0.36078 0.27646,-0.535884 -1.02462,-1.313672 -1.08413,-3.632182 0.78962,-6.26835 0.40908,-0.575506 0.8862,-1.140775 1.47743,-1.539441 0.28308,-0.190889 0.58346,-0.355727 0.88935,-0.507463 0.15756,-0.07814 0.3226,-0.141594 0.49041,-0.19482 0.0399,-0.06375 0.0582,-0.09195 0.10645,-0.169498 0.0641,-0.102939 0.15334,-0.188542 0.23513,-0.278019 0.46567,-0.509275 0.32231,-0.345596 0.98806,-0.903306 0.23817,-0.159459 0.27881,-0.189529 0.56379,-0.362251 0.0658,-0.03985 0.12901,-0.08668 0.20101,-0.113689 0.45961,-0.172413 0.93205,-0.306755 1.39009,-0.483174 0.0159,-0.0061 0.0111,-0.0076 0,-0.0062 0.0464,-0.0098 0.0937,-0.02117 0.14005,-0.03153 0.2023,-0.0324 0.40224,-0.06975 0.60515,-0.09715 0.0417,-0.0056 0.0838,-0.0083 0.12557,-0.01344 -0.0313,-0.03178 -0.0642,-0.06176 -0.0951,-0.09405 -0.0539,-0.05622 -0.0393,-1.426281 -0.0403,-1.729094 0.0675,-0.57504 0.0817,-1.181986 0.34367,-1.717725 0.19909,-0.407162 0.44103,-0.793901 0.70588,-1.161685 0.13507,-0.187566 0.2849,-0.380243 0.48421,-0.497128 0.1297,-0.138078 0.26625,-0.26234 0.40979,-0.378273 0.0312,-0.04189 0.0697,-0.09019 0.0863,-0.118853 0.0394,-0.07164 0.0785,-0.143338 0.11781,-0.214974 0.003,-0.0071 1.9e-4,-0.01479 0.005,-0.02119 0.10734,-0.195527 0.21844,-0.389372 0.3276,-0.583943 0.33946,-0.580152 0.1868,-0.309428 0.61082,-1.10226 0.11467,-0.214635 0.25548,-0.417629 0.34264,-0.644922 0.0367,-0.0958 0.0138,-0.204679 0.0217,-0.306959 0.0311,-0.39515 0.0201,-0.09793 0.0161,-0.636135 -0.0808,-1.203042 -0.0937,-2.406909 -0.0801,-3.612184 0.0101,-0.559091 0.0101,-0.42413 0.0114,-1.044379 0,-0.13121 0.0122,-0.263144 0,-0.393774 -0.007,-0.07638 -0.0412,-0.147871 -0.0579,-0.222727 -0.018,-0.08066 -0.0327,-0.162221 -0.0481,-0.243395 -0.54774,-1.6e-5 -1.09498,-1.6e-5 -1.6428,0 h -2.56574 -1.95285 -0.44545 c -0.10482,0 -0.20996,0.01103 -0.31419,0 -0.39172,-0.04142 -0.78113,-0.104722 -1.17151,-0.157097 -0.0683,-0.02127 -0.0687,-0.02053 -0.12764,-0.03876 -0.0302,0.0035 -0.061,0.0073 -0.0915,0.0093 -0.14167,0.0093 -0.2835,0.01548 -0.42529,0.02326 -0.2628,0.01609 -0.52483,-0.0067 -0.78703,-0.0186 -0.0266,-0.0013 0.0532,0.0057 0.0796,0.0093 0.006,7.93e-4 -0.0126,5.29e-4 -0.0186,5.29e-4 -0.0584,5.29e-4 -0.11679,0.0026 -0.17519,0.0031 -0.0481,5.3e-4 -0.0963,-0.0076 -0.14418,0.0016 -0.0309,0.0034 -0.0586,0.02 -0.0894,0.02479 -0.33283,0.05238 -0.70072,0.09742 -1.03662,0.08165 -0.0925,-0.0043 -0.1849,-0.01418 -0.27699,-0.02376 -0.016,-1.53e-4 -0.038,-5.29e-4 -0.0486,-5.29e-4 -0.0668,7.94e-4 -0.13372,0.0019 -0.20051,0.0026 -0.067,5.29e-4 -0.13403,0.0021 -0.20102,0.0026 -0.36531,-0.0016 -0.73019,-0.0024 -1.09554,-0.0021 -0.29292,-1.66e-4 -0.5861,5.29e-4 -0.87902,0 -0.11226,2.9e-5 -0.29092,-10e-6 -0.43046,0 -0.10391,-1.6e-5 -0.20817,-2e-6 -0.31213,0 h -0.28009 c -7.57771,0 -7.57771,-7.65484 0,-7.654829 h 0.28009 c 0.10406,0 0.20808,-1.9e-5 0.31213,0 h 0.44752 c 0.28607,5.29e-4 0.57226,-1.83e-4 0.85834,0 0.34781,-2.04e-4 0.69552,-5.3e-4 1.04335,0.0021 0.28607,-0.0019 0.57995,-0.0195 0.86765,-0.0026 0.0648,-0.008 0.12978,-0.01672 0.19482,-0.02273 0.25962,-0.02405 0.51962,-0.04352 0.77979,-0.06098 0.0534,-0.0036 0.10672,-0.0016 0.1602,-0.0021 0.24593,-0.0016 0.48788,0.0034 0.73381,0.01241 0.0276,-0.0046 0.0822,-0.01177 0.26251,-0.02376 0.19091,-0.01249 0.38177,-0.0307 0.57309,-0.02997 0.72462,0.0028 0.8483,0.057 1.61696,0.212907 h 2.29081 2.56212 2.31148 c -0.054,-0.1164 -0.11125,-0.231216 -0.16586,-0.347265 -0.2821,-0.599284 -0.56497,-1.197211 -0.80979,-1.812811 -0.43844,-0.964303 -0.98729,-1.883998 -1.24695,-2.920752 -0.007,-0.04651 -0.0103,-0.09303 -0.0164,-0.139525 -3.18145,-3.594341 -1.70555,-6.991318 1.28882,-7.056416 0.56298,-0.01225 1.18157,0.102018 1.83091,0.346231 v -0.352433 c 0,-0.08212 -0.009,-0.164907 0,-0.246497 0.046,-0.397772 0.11054,-0.792988 0.16587,-1.189593 0.006,-0.02119 0.0119,-0.04236 0.0161,-0.06356 -0.0214,-0.137326 -0.0277,-0.224697 -0.0398,-0.534334 0.0296,-0.47349 0.0114,-0.946822 0.0744,-1.416452 -1.16396,0.06499 -1.25162,-0.05124 -1.13946,-1.117761 -0.0127,-0.142711 -0.0409,-0.286991 -0.0161,-0.426331 0.0949,-0.497758 0.20741,-0.992841 0.34676,-1.480011 0.0783,-0.273796 0.19947,-0.533352 0.30488,-0.797885 0.14116,-0.354084 0.1837,-0.450808 0.2739,-0.639239 0.003,-0.01794 0.006,-0.03594 0.009,-0.05374 v -0.102835 -5.3e-4 c -0.008,-0.03297 -0.0103,-0.06743 0,-0.02532 0,-0.09986 0.003,-0.200025 0.003,-0.299207 0,-0.217154 -0.003,-0.379423 -0.003,-0.593762 -0.005,-1.015503 0.1978,-0.420994 1.64433,-2.245341 0.14142,-0.0066 0.28234,-0.02032 0.42376,-0.031 0.58267,-0.58801 1.33935,-0.906717 2.1544,-0.894004 z m -7.21248,87.0846 h 0.003 c 1.6e-4,-7.9e-4 0,-0.002 0,-0.003 0,2.5e-4 -1e-4,2.7e-4 -0.003,0.002 z m 3.06802,-83.065725 c -0.0164,0.0036 -0.0395,0.07853 -0.0589,0.151411 0,0.0044 1.1e-4,0.0072 0.003,0.01188 0.0214,-0.04448 0.0406,-0.08481 0.0692,-0.14418 -0.003,-0.01447 -0.008,-0.01966 -0.013,-0.01913 z m -0.0682,0.101285 c 0,0.0037 0.003,0.0084 0.003,0.01241 0,-0.0026 2.1e-4,-0.0052 0.003,-0.0078 0,-0.0011 -0.003,-0.0026 -0.004,-0.0047 z m 10.05519,17.15451 v 0.0031 c 0,-0.0011 1.1e-4,-0.0021 0.003,-0.0031 z m 0,0.0031 c -0.0621,0.135851 -0.12506,0.271431 -0.18139,0.409795 -0.0475,0.116697 0.1357,-0.218535 0.16279,-0.341583 0.005,-0.02278 0.0119,-0.04551 0.0185,-0.06821 z m -18.48259,3.12229 c -0.0429,-7.94e-4 -0.0666,0.009 -0.0476,0.04238 0.0519,0.09106 0.20937,0 0.3142,0 h 0.10128 c 0.0154,0.004 -0.0723,-0.0087 -0.10852,-0.01291 -0.064,0.0027 -0.18797,-0.02802 -0.25941,-0.02946 z m -3.50212,0.01704 c 0.1424,0.02858 0.28432,0.06055 0.42788,0.08217 0.1123,0.01691 -0.22194,-0.04881 -0.33279,-0.07338 -0.0752,-0.0062 -0.0401,-0.004 -0.0951,-0.0088 z m 1.41335,7.263122 c -0.0513,-0.0065 0.42996,0.154162 0.50643,0.1695 0.0376,0.0075 0.0759,0.01146 0.11421,0.01447 -0.35679,-0.109453 -0.59652,-0.18093 -0.62064,-0.18397 z m -2.49338,0.301276 c 0.006,0.0011 0.0179,0.0033 0.0238,0.0041 0.0304,0.0043 0.0614,0.0066 0.092,0.0083 -0.0385,-0.0044 -0.0772,-0.008 -0.11575,-0.01241 z m 14.58826,30.336649 c -0.0432,0.264967 -0.0897,0.529357 -0.13901,0.793234 0.16095,-0.207854 0.32337,-0.414489 0.49453,-0.613918 0.0399,-0.04652 0.085,-0.08833 0.13126,-0.128672 -0.19087,-0.02381 -0.3229,-0.03336 -0.48678,-0.05064 z m -23.42131,0.0011 c -0.001,5.29e-4 -0.002,0.0013 -0.003,0.0021 0.002,-5.9e-5 0.002,1.8e-5 0.003,0 -8e-5,-5.29e-4 5e-5,-0.0016 0,-0.0021 z m 0.001,0.02119 c 7e-5,5.29e-4 -7e-5,0.0016 0,0.0021 2.7e-4,-7.94e-4 2.6e-4,-0.0013 5.3e-4,-0.0021 z m 0,0.0021 c -0.002,0.0046 -0.003,0.0093 -0.005,0.01394 0.002,0.0046 0.005,0.0094 0.008,0.01394 -7.9e-4,-0.01119 -0.002,-0.02003 -0.003,-0.02791 z m 0.0165,0.06098 c 0.002,5.29e-4 0.003,7.94e-4 0.004,0.0011 l -5.2e-4,-5.3e-4 c -8e-4,-2.01e-4 -0.002,-5.29e-4 -0.003,-5.29e-4 z m -0.65164,0.0217 c 5.3e-4,1.38e-4 7.9e-4,5.29e-4 0.002,0.0011 5.3e-4,-1.61e-4 7.9e-4,-7.93e-4 0.002,-0.0011 -0.003,9.3e-5 -0.004,-2.64e-4 -0.004,0 z m 23.84867,0.299207 c -0.004,-0.04328 -0.0148,0.306141 -0.019,0.49816 0.0148,-0.01916 0.0296,-0.03821 0.0444,-0.05736 -0.0145,-0.258572 -0.0209,-0.40473 -0.0254,-0.440798 z m -7.91787,3.930507 c -0.009,0.0011 -0.0164,0.0021 -0.0254,0.0031 -0.0106,0.02029 -0.0212,0.04056 -0.0315,0.06098 0.0103,-0.0016 0.0206,-0.0035 0.031,-0.0052 0.009,-0.02117 0.0172,-0.03921 0.0259,-0.05891 z m -15.5423,0.564711 c -0.0129,0.0114 -0.0252,0.01923 -0.0382,0.03152 0.0159,0.0011 0.0335,0.0026 0.0496,0.0036 -0.004,-0.01167 -0.008,-0.02349 -0.0114,-0.03514 z m 52.51205,8.272368 c -0.003,0.002 -0.003,0.0141 0,0.0367 0.0312,0.50822 0.0584,0.83138 0.0816,1.04283 0.0199,-0.0239 0.037,-0.0518 0.0522,-0.0822 -0.005,0.0266 -0.0103,0.0532 -0.014,0.0801 -0.004,0.0297 0.0201,-0.0561 0.0305,-0.0842 0.0222,-0.0208 0.0172,-0.0151 0.0124,-0.0734 -0.008,0.0247 -0.0172,0.0487 -0.0274,0.0703 0.007,-0.0397 0.0159,-0.0792 0.0243,-0.11886 0,0.0152 0.003,0.0308 0.004,0.046 1.1e-4,0.002 0,5.3e-4 0,0.003 0.0531,-0.15725 0.0688,-0.38264 0.0713,-0.69918 -0.013,0.1469 -0.0268,0.29371 -0.0403,0.44028 -0.006,0.0683 -0.0199,0.13586 -0.0341,0.20309 -0.007,-0.10024 -0.0138,-0.20051 -0.032,-0.29921 -0.029,-0.15578 -0.11329,-0.58191 -0.1266,-0.56482 z m -52.82624,1.85983 c -0.004,8e-4 -0.006,0.002 -0.009,0.002 2.1e-4,5.3e-4 2.2e-4,0.002 5.3e-4,0.002 v 5.3e-4 c 0.003,-5.3e-4 0.006,-10e-4 0.008,-0.002 1e-5,-0.002 5.2e-4,-0.002 5.2e-4,-0.003 z m -0.32504,0.9002 -0.001,5.3e-4 c 5.3e-4,1.4e-4 7.9e-4,5.3e-4 0.001,5.3e-4 h 5.2e-4 z m 0.002,0.003 c 0.002,0.002 0.005,0.003 0.004,0.005 -0.0239,0.0215 -0.0945,0.05 -0.0403,0.0527 0.005,2.6e-4 0.0105,0.004 0.0155,5.3e-4 0.0255,-0.0147 0.0366,-0.025 0.0253,-0.0522 0.002,2.4e-4 0.003,-0.001 0.006,0.003 0.002,7.9e-4 0.002,0.001 0.004,0.002 0.002,-0.002 0.004,-0.004 0.006,-0.004 0.007,4e-5 0.0163,0.0115 0.0253,0.0248 5.3e-4,8e-4 0.004,0.002 0.005,0.004 0.006,0.003 0.01,0.008 0.016,0.0114 0.005,0.003 0.0116,0.006 0.0176,0.009 5.3e-4,-0.003 0.001,-0.005 0.002,-0.009 v -5.3e-4 c 0.008,0.007 0.0172,0.0119 0.0258,0.0176 0.006,0.004 0.0131,0.007 0.0191,0.0114 0.001,8e-4 0.002,0.002 0.004,0.003 0.0218,0.009 0.0418,0.0189 0.0713,0.0295 0.006,0.002 0.0105,0.004 0.016,0.006 5.3e-4,-0.004 -2.6e-4,-0.007 0.002,-0.0108 l -5.3e-4,5.3e-4 c 2.2e-4,-8e-4 -10e-5,-0.003 5.3e-4,-0.005 v 0.004 c 2.6e-4,-0.003 2.6e-4,-0.006 0.002,-0.009 -2.3e-4,7.9e-4 -2.6e-4,0.002 -0.002,0.004 v -0.005 c 0,-0.004 1.2e-4,-0.008 0,-0.0124 -6e-5,-0.003 -0.003,-0.007 -5.3e-4,-0.009 0.002,-0.002 0.003,0.003 0.005,0.005 0.003,0.003 0.005,0.007 0.009,0.009 8e-4,5.3e-4 0.004,0.002 0.006,0.003 -7.9e-4,-0.004 -0.002,-0.009 -0.002,-0.0139 -0.007,-0.004 -0.0115,-0.007 -0.0217,-0.0119 -5.3e-4,-0.002 -5.3e-4,-0.003 -0.002,-0.005 -0.007,-0.002 -0.0141,-0.004 -0.0212,-0.006 -0.16283,-0.0419 -0.0708,-0.0164 -0.19637,-0.0517 z m 0.0858,0.0393 h 5.3e-4 c -3e-5,5.3e-4 -5.3e-4,0.002 -5.3e-4,0.003 5e-5,-0.001 -8e-5,-0.002 0,-0.003 z m 0.53072,0.29197 c 0.008,0.003 0.016,0.006 0.0238,0.009 v -0.003 c -0.008,-0.002 -0.016,-0.004 -0.0238,-0.006 z m 20.58274,5.57848 c -0.27641,0.16525 -0.53792,0.3513 -0.77258,0.57464 -0.008,0.008 -0.0154,0.0167 -0.0233,0.0248 0.0368,0.0989 0.0718,0.20158 0.10025,0.31161 0.20521,-0.0991 0.51152,-0.26544 0.89763,-0.49558 -0.0694,-0.13753 -0.13637,-0.27624 -0.20204,-0.41548 z m 0.28731,0.57722 c -1.72667,1.80113 -1.40097,1.14928 -1.54667,2.00195 0.47029,-0.69546 1.04118,-1.32503 1.55286,-1.99316 -0.003,-0.003 -0.005,-0.006 -0.006,-0.009 z m -1.18494,0.14573 c -0.0758,0.10926 -0.1294,0.2316 -0.16795,0.36277 0.0647,-0.0313 0.14396,-0.0669 0.26408,-0.12299 -0.0311,-0.0754 -0.0604,-0.14679 -0.0956,-0.23978 z m -0.56327,2.14147 c -0.004,0.0178 -0.008,0.035 -0.0119,0.0527 0.003,-0.005 0.006,-0.009 0.009,-0.0129 0,-0.0161 0.003,-0.0261 0.003,-0.0398 z m 9.18496,17.70797 c -0.0185,-8e-4 -0.0661,0.005 -0.11316,0.0119 0.0381,0.005 0.0782,0.0103 0.10903,-0.002 0.014,-0.006 0.0132,-0.009 0.004,-0.009 z m 1.7689,0.23512 c 0,8e-4 -0.0196,0.004 -0.0899,0.0165 0.13134,0.01 0.27297,0.016 0.42529,0.0186 -0.15246,-1.4e-4 -0.30467,-0.002 -0.47231,-0.0103 0.0402,-0.007 0.0193,-0.004 0.046,-0.008 -0.009,-7.9e-4 -0.0183,-0.002 -0.0274,-0.003 0.0676,-0.008 0.10634,-0.0134 0.11835,-0.0139 z m 0.71932,0.0336 v 0.001 5.3e-4 c -0.0259,-0.002 -0.0515,0.003 -0.077,0.003 -0.0837,7.9e-4 -0.16203,-2.7e-4 -0.23979,-0.001 0.10369,-2.6e-4 0.20698,5.3e-4 0.31628,-0.003 z" />
    </clipPath>
  </defs>
  <g
     inkscape:label="Calque 1"
     inkscape:groupmode="layer"
     id="layer1">
    <text
       xml:space="preserve"
       style="font-style:normal;font-variant:normal;font-weight:normal;font-stretch:normal;font-size:123.472px;line-height:1.25;font-family:Poppins;-inkscape-font-specification:Poppins;stroke-width:0.264583;fill:#ffffff"
       x="20.072165"
       y="136.08247"
       id="text4226"><tspan
         sodipodi:role="line"
         id="tspan4224"
         style="font-style:normal;font-variant:normal;font-weight:normal;font-stretch:normal;font-size:123.472px;font-family:Poppins;-inkscape-font-specification:Poppins;stroke-width:0.264583;fill:#ffffff"
         x="20.072165"
         y="136.08247">cell</tspan></text>
    <text
       xml:space="preserve"
       style="font-style:normal;font-variant:normal;font-weight:normal;font-stretch:normal;font-size:123.472px;line-height:1.25;font-family:Poppins;-inkscape-font-specification:Poppins;stroke-width:0.264583;fill:#ffffff"
       x="347.20868"
       y="135.55536"
       id="text4226-9"><tspan
         sodipodi:role="line"
         id="tspan4224-5"
         style="font-style:normal;font-variant:normal;font-weight:normal;font-stretch:normal;font-size:123.472px;font-family:Poppins;-inkscape-font-specification:Poppins;stroke-width:0.264583;fill:#ffffff"
         x="347.20868"
         y="135.55536">rium</tspan></text>
    <image
       width="135.46666"
       height="135.46666"
       preserveAspectRatio="none"
       style="image-rendering:optimizeQuality"
       xlink:href="data:image/png;base64,iVBORw0KGgoAAAANSUhEUgAAAgAAAAIACAYAAAD0eNT6AAAACXBIWXMAAA7DAAAOwwHHb6hkAAAR I0lEQVR42u3b0Y3rWBADUQXgjJWMM7VTEKCP202eAhiA5GaJ8xZ7XQDW8Pnev8nxCwEAEPiBNxAA APChNwwAAPChNwwAAD74YhAAAHzwxSgAAPjgizEAAPDBF4MAAOCjL8YAAMBHX4wBAICPvhgDAAAf fTEGAAA+/GIIAICPvogxAAA+/CLGAAD46IsYAgDgwy9iCACAD7+IIQAAPvwihgAA+OiLGAIA4OMv YggAgA+/iCEAAD78IoYAAPjwiyEAAD78PghiCACAD7+IIQAAPv4iRgAA+PCLGAIA4MMvYggAgI+/ iBEAAD788ujj4l0YAgDg4++D4Df3mwOAjwDhuw13AQDkTujuxt0AAImTtntyTwDIWgjajbkxAKRM xnB7bg8AARMv3KJbBEC2RAv36T4BkCupwr26VwBkSqJwv+4XAHmSJtyzewZAlEQJ9+2+AZAjKcK9 u3cAZEiEcPtuHwABkh/0QA8AdErPLwy90AsABAfoiZ4ApEZogM74dQEiIzKgtD9+WYC8yAvQIwCk RViATgEgKpIC9AsAOREToGsACImQoHM6B4CISAj6p38AyId4oIu6CIBwCAc6qZMAiIZkoJ/6CYBc AD3VUwDRUvHr7f3d/QJGAAAyIRK/r99WdwEQCIG0/VXod9dhAMRBGj747kGfAZAFWfjguxG9BkAS fitxM/oNIF8OfiNxR7oOgBD8NuKudB5Asgz8HuLO9B4ACfgtxM3pPwDl9xuIG+QBABGl9/7FTbpH IwDw8ffuxX26TyMAUHDvXdwqRwCIKbf3LYaAuzUAAKX2rsUQcMNGAKDM3rO4Z/dsBABK7B2L2+YP ADsL7N2KIeDODQBAcb1bMQLcuxEAKKz3KoaA2zcCAEX1XsUI0AEjANhZUu9TRB+8T0A5vU8xAvTC CACU0rsUQ0BHjAAgppDeo4iueI+AInqHInrjHQL+Kc47FNEdIwCwwL0/ER0yAADF8/EXI0CXjABA 4Xz4A35b71GvvDsgsGzem4+N30a/vDdAybw3HxO/mZ55b4B/ZvPe/EZ+S13z3gDrmpAIz2+rc94Z oFQ+EATn99Y9HQGWFMr78hv4/f3+nAUokvfl/bsFt8BdgBJ5T8TlPnTSewIUiNwJy63opvcEKA6p k5Sb0U/vClAaIicmN6SjegYoDHHDLemqzoGMFCVc2K7dXemsdwRYykWSdul6qLfeEWAlF4nZheuj /no/gHKQMfRSj70fQDFSJeyy9dMN8hygFMQLXdVp7waYWQjvhVDgLjkPsIa9GzKB2+Q9wBImWAKB O+U+wAomVfKAe+U/wAImU+iyu+VAwOFHi9QFw/1yIeDoyRNwx1wIOHjShI67Z04EHDtZQs/dNScC k47d+yAFuG3vStdh6RIkIcCNe086DyuXGIkAbp0fAQu3UIouFu6dIwHrlgwBd8+TgMMmQcD98yTg qGME6FKhA94PH8BBEx+gC3wJOOZk6blS6ANXcAMcMtkBeuG98AMyDtk7UG5wBG9wBKxYglNu8ARv 8AQsWHID9IQ/uAKOt0BsLhN8wR98Af98RWgAb3AIb8ByTZaZqwR38Ah3wNH6SwbgDi7hDjhYf8UA HMInHALHSl4Aj3AKj8CxEhegR5wKOFTSAvSJWwFHOlVYrhGcwi2cgpojJSplBadwDKfAQvWXCsAt HMMtcJwdknKJ4BeO4Rf45yl/oQD8wjX8AofprxOAY7iGY+CfpvxlAvAM3/AMrFJ/lQBcwzlcAwdJ SADXcA7XwEGSEcA3vMM3GFZGIgI4h3c4B9YoCQG8wz+8A4dIQADv8A/vwCH6ZziAe/iHe+AI/fUB 8A8P8Q8coL88AA7iIQ6CAyQdgIN4iIPgAEkH4CAe4iCcPUDCAWAE8BCsT7IBuIiPuAgOz3MDfMRH fASH5y8NgI84iY+w//BIBoBu9roYBoC1DaC+n5wERfPcAC/xEi/BwfknRoCXuImX4OA8M8BN3MRN cHCeGeAmbuImrDo4YgGgp5wMx+aZAfATP8Gx+asC4Cf/GYCfoFyeGeAojuIoODTPDHAUR3EUHJp/ XgN4iqN4CorlmQGe4imegiOzrAGe4iqeggGgWABPcRVPKZZSKRbAU1zFU4qlVEoFcBVXQamUSqkA rvK8UCqlUipAdz0vFEqplArQXX6GQvl/axUK0F0DAAqlUAoF6C9HQ6EMAAD6y9EwADwvAB32vHBc nheADnMWHJfnBcBZnAXH5XkBzuIszoLj8rwAZ3EWZ8FxeV6AsziLs+C4PC/AWZzFWXBcygRwFmdx FpRJmQDO4izOUiZlUiaAsziLs5RJmZQJ4CzOgjIpkzIBnMVZUCZlUiaAszwvlEmZlAnQYc8LZVIm ZQJ02PNCmZRJmQAd9rxQJmUCoMOeF8rkeQHosOeFMnleADrMWXBcnhcAZ3EWHJfnBcBZnAXHte95 RWR3OBoGgDKJiAHA0TAAlElEDACOhgGgTCJiAHA0DABlEhEDgKNhABgAImIAcDQMAANARAwAjobj MgBExAAwAOC4DAARMQAMADguA0BEOMsAgOMyAESEswwAOC4DQEQ4ywCA4zIARISzDAA4LgNARDjL AIABICLCWQaAAaBMIiKcZQAYAMokIsJZvpAGgDKJiBgAMACUSUQMAI6GAaBMImIAcDQMAGUSEQOA o2EAKJOIGAAcDQPAABARA4CjYQAYACJiAHA0DAADQEQMAAMAjssAEBEDwACA4zIARMQAMADguAwA EeEsAwCOywAQEc4yAOC4DAAR4SwDAI7r/PO6NECPORqKZAAA0GOOhgFAHAD0mKPhuIgDgB4bAHBc xAHAAOAtOC7iAHiLs3gLjos4AN7iLN6C4yIOgLc4i7fguAwAgLc4i7fguAwAgLc4i7dgACgSwFuc xVuKpEyKBPAWZ/GWIimTIgG8ZQBAkZRJkQADgKOhSMqkSIABwNFQJGVSJECPORqKpEyKBOgxR0OR lEmRAD3maCiSAQBAjzkaBgBxANBjjobjIg4AemwAwHERBwADgLfguIgDgAHAW3BcxAHwFmfxFhwX cQC8xVm8BcdlAAC8xVm8BcdlAAC8xVm8BQNAkQDe4izeUiRlUiSAtziLtxRJmRQJ4C0DAIqkTIoE 8JYBAEVSJkUCDACOhiIpkyIBeszRUCRlUiRAjzkaiqRMigToMUdDkQwAAHrM0TAAiAOAHnM0DADi AKDHBgAcF3EAMAAMADgu4gBgAPAWHBdxALzFWbwFx0UcAG9xFm/BcREHwFucxVtwXAYAwFucxVsw ABQJ4C3O4i1FMgAUCeAtzuItRVImRQJ4ywDgLUVSJkUCeMsAgCIpkyIBBgBHQ5GUSZEAPeZoKJIy KRKgxxwNRVImRQL0mKOhSAYAAD3maBgABgAAPeZoGADEAUCPDQA4LuIAoMcGABwXcQAwAHgLjos4 AN7iLN6C4yIOgLc4i7fguIgD4C3O4i04LgMA4C3O4i0YAIoE8BZn8RYMAEUCeIuzeEuRlEmRAN7i LN5SJGVSJIC3DAAokjIpEmAAcDQUSZkUCdBjjoYiKZMiAXrM0VAkZVIkQI85GopkAADQY46GIhkA APSYo2EAEAcAPeZoOC7iAKDHBgAcF3EAMAB4C46LOADe4izeguMiDoC3OIu34LiIA+AtzuItOC4D AOAtzuItOC5FAniLs3gLBoAiAbzFWbylSMqkSABvcRZvKZIyKRLAWwYAFEmZFAkwADgaiqRMigQY ABwNRVImRQL0mKOhSMqkSIAeczQUSZlcGqDHHA1FMgAA6DFHwwAgDgB6zNFwXMQBQI8NADgu4gBg APAWHBdxALzFWbwFx0UcAG9xFm/BcREHwFucxVtwXAYAwFucxVtwXAYAwFucxVswABQJ4C3O4i1F UiZFAniLs3hLkZRJkQDeMgCgSMqkSIABwNFQJGVSJMAA4GgokjIpEqDHHA1FUiZFAvSYo6FIyqRI gB5zNBTJAACgxxwNA4A4AOgxR8NxEQcAPTYA4LiIA4ABwFtwXMQBwADgLTgu4gB4i7N4C46LOADe 4izeguMyAADe4izeguMyAADe4izeggGgSABvcRZvKZIyKRLAW5zFW4qkTIoE8JYBAEVSJkUCeMsA gCIpkyIBBgBHQ5GUSZEAPeZoKJIyKRKgxxwNRVImRQL0mKOhSAYAAD3maBgAxAFAjzkaBgBxANBj AwCOizgAGAAGABwXcQAwAHgLjos4AN7iLN6C4yIOgLc4i7fguIgD4C3O4i04LgMA4C3O4i0YAIoE 8BZn8ZYiGQCKBPAWZ/GWIimTIgG8ZQDwliIpkyIBvGUAQJGUSZEAA4CjoUjKpEiAHnM0FEmZFAnQ Y46GIimTIgF6zNFQJAMAgB5zNAwAAwCAHnM0DADiAKDHBgAcF3EA0GMDAI6LOAAYALwFx0UcAG9x Fm/BcREHwFucxVtwXMQB8BZn8RYclwEA8BZn8RYMAEUCeIuzeAsGgCIBvMVZvKVIyqRIAG9xFm8p kjIpEsBbBgAUSZkUCTAAOBqKpEyKBOgxR0ORlEmRAD3maCiSMikSoMccDUUyAADoMUdDkQwAAHrM 0TAAiAOAHnM0HBdxANBjAwCOizgAGAC8BcdFHABvcRZvwXERB8BbnMVbcFzEAfAWZ/EWHJcBAPAW Z/EWHJciAbzFWbwFA0CRAN7iLN5SJGVSJIC3OIu3FEmZFAngLQMAiqRMigQYABwNRVImRQIMAI6G IimTIgF6zNFQJGVSJECPORqKpEwuDdBjjoYiGQAA9JijYQAQBwA95mg4LuIAoMcGABwXcQAwAHgL jos4AN7iLN6C4yIOgLc4i7fguIgD4C3O4i04LgMA4C3O4i04LgMA4C3O4i0YAIoE8BZn8ZYiKZMi AbzFWbylSMqkSABvGQBQJGVSJMAA4GgokjIpEmAAcDQUSZkUCdBjjoYiKZMiAXrM0VAkZVIkQI85 GopkAADQY46GAUAcAPSYo+G4iAOAHhsAcFzEAcAA4C04LuIAYADwFhwXcQC8xVm8BcdFHABvcRZv wXEZAABvcRZvwXEZAABvcRZvwQBQJIC3OIu3FEmZFAngLc7iLUVSJkUCeMsAgCIpkyIBvGUAQJGU SZEAA4CjoUjKpEiAHnM0FEmZFAnQY46GIimTIgF6zNFQJAMAgB5zNAwA4gCgxxwNA4A4AOixAQDH RRwADAADAI6LOAAYALwFx0UcAG9xFm/BcREHwFucxVtwXMQB8BZn8RYclwEA8BZn8RYMAEUCeIuz eEuRDABFAniLs3hLkZRJkQDeMgB4S5GUSZEA3jIAoEjKpEiAAcDRUCRlUiRAjzkaiqRMigToMUdD kZRJkQA95mgokgEAQI85GgaAAQBAjzkaBgBxANBjAwCOizgA6LEBAMdFHAAMAN6C4yIOgLc4i7fg uIgD4C3O4i04LuIAeIuzeAuOywAAeIuzeAsGgCIBvMVZvAUDQJEA3uIs3lIkZVIkgLc4i7cUSZkU CeAtAwCKpEyKBBgAHA1FUiZFAvSYo6FIyqRIgB5zNBRJmRQJ0GOOhiIZAAD0mKOhSAYAAD3maBgA xAFAjzkajos4AOixAQDHRRwADADeguMiDoC3OIu3sPi4RERkbnwhDQARETEAYACIiIgBAANAREQM ABgAIiJiAMAAEBERAwAGgIiIGAAwAERExACAASAiIgYADAARETEAYACIiIgBAANAREQMABgAIiJi AMAAEBERAwAGgIiIGAAwAERExAAwABy5iIgYAAaAiIiIAWAAiIiIAQADQEREDAAYACIiYgDAABAR EQMABoCIiBgAMABERMQAgAEgIiIGAAwAERExAGAAiIiIAQADQEREDAAYACIiYgDAABAREQPgJX+H O/Zd7ne4IQAAAABJRU5ErkJggg== "
       id="image40312"
       x="220.66248"
       y="0.26458773" />
  </g>
</svg>
