<?xml version="1.0" encoding="utf-8"?>
<!-- Generator: Adobe Illustrator 15.0.0, SVG Export Plug-In . SVG Version: 6.00 Build 0) -->
<!DOCTYPE svg PUBLIC "-//W3C//DTD SVG 1.1//EN" "http://www.w3.org/Graphics/SVG/1.1/DTD/svg11.dtd">
<svg version="1.1" id="Layer_1" xmlns="http://www.w3.org/2000/svg" xmlns:xlink="http://www.w3.org/1999/xlink" x="0px" y="0px" width="1920px" height="304px" viewBox="0 0 1920 304" enable-background="new 0 0 1920 304" xml:space="preserve">
	<path fill="#f6f6f6" d="M0,274c0,0,195.28-174,579.28-124s580.147-76.408,736-108C1463.28,12,1920,0,1920,0v304H0V274z" />
</svg>

